%YAML 1.1
%TAG !u! tag:unity3d.com,2011:
--- !u!114 &3581438057624711563
MonoBehaviour:
  m_ObjectHideFlags: 0
  m_CorrespondingSourceObject: {fileID: 0}
  m_PrefabInstance: {fileID: 0}
  m_PrefabAsset: {fileID: 0}
  m_GameObject: {fileID: 661890274031410518}
  m_Enabled: 1
  m_EditorHideFlags: 0
  m_Script: {fileID: 11500000, guid: 37fc6ff8bca28aff1ac581a3e7abdd55, type: 3}
  m_Name: 
  m_EditorClassIdentifier: 
  onPickedUp:
    m_PersistentCalls:
      m_Calls: []
  onDropped:
    m_PersistentCalls:
      m_Calls: []
  rigidbody: {fileID: 0}
  outlineEffect: {fileID: 0}
  audioSource: {fileID: 0}
  item: {fileID: 0}
  model: {fileID: 0}
  onDestroyed:
    m_PersistentCalls:
      m_Calls: []
--- !u!1001 &4586393319403972666
PrefabInstance:
  m_ObjectHideFlags: 0
  serializedVersion: 2
  m_Modification:
    m_TransformParent: {fileID: 0}
    m_Modifications:
    - target: {fileID: 3929854523239167340, guid: 64c1f950a7c0e944aa102b27ac56aa5c,
        type: 3}
      propertyPath: m_Name
      value: MixerItemPrefab
      objectReference: {fileID: 0}
    - target: {fileID: 3929854523239167381, guid: 64c1f950a7c0e944aa102b27ac56aa5c,
        type: 3}
      propertyPath: m_RootOrder
      value: 0
      objectReference: {fileID: 0}
    - target: {fileID: 3929854523239167381, guid: 64c1f950a7c0e944aa102b27ac56aa5c,
        type: 3}
      propertyPath: m_LocalEulerAnglesHint.x
      value: 0
      objectReference: {fileID: 0}
    - target: {fileID: 3929854523239167381, guid: 64c1f950a7c0e944aa102b27ac56aa5c,
        type: 3}
      propertyPath: m_LocalEulerAnglesHint.y
      value: 0
      objectReference: {fileID: 0}
    - target: {fileID: 3929854523239167381, guid: 64c1f950a7c0e944aa102b27ac56aa5c,
        type: 3}
      propertyPath: m_LocalEulerAnglesHint.z
      value: 0
      objectReference: {fileID: 0}
    m_RemovedComponents: []
  m_SourcePrefab: {fileID: 100100000, guid: 64c1f950a7c0e944aa102b27ac56aa5c, type: 3}
--- !u!1 &661890274031410518 stripped
GameObject:
  m_CorrespondingSourceObject: {fileID: 3929854523239167340, guid: 64c1f950a7c0e944aa102b27ac56aa5c,
    type: 3}
  m_PrefabInstance: {fileID: 4586393319403972666}
  m_PrefabAsset: {fileID: 0}
