# This file uses centimeters as units for non-parametric coordinates.

mtllib blunttray.mtl
g default
v -98.352150 0.123438 163.273682
v 98.352150 0.123438 163.273682
v 98.352150 23.456066 163.273682
v -98.352150 23.456066 163.273682
v 98.352158 23.456066 140.702118
v -98.352158 23.456066 140.702118
v 98.352158 0.123438 140.702118
v -98.352158 0.123438 140.702118
v 76.496124 0.123438 140.702148
v 76.496117 0.123438 174.968979
v 76.496117 23.456066 174.968979
v 76.496124 23.456066 140.702148
v 54.640091 0.123438 140.702179
v 54.640087 0.123438 185.604462
v 54.640087 23.456066 185.604462
v 54.640087 23.456066 140.702179
v 32.784058 0.123438 140.702179
v 32.784058 0.123438 192.956650
v 32.784058 23.456066 192.956650
v 32.784054 23.456066 140.702194
v 10.928020 0.123438 140.702194
v 10.928020 0.123438 195.572205
v 10.928020 23.456066 195.572205
v 10.928019 23.456066 140.702209
v -10.928015 0.123438 140.702194
v -10.928013 0.123438 195.572205
v -10.928013 23.456066 195.572205
v -10.928017 23.456066 140.702209
v -32.784050 0.123438 140.702179
v -32.784046 0.123438 192.956650
v -32.784046 23.456066 192.956650
v -32.784054 23.456066 140.702194
v -54.640087 0.123438 140.702179
v -54.640083 0.123438 185.604462
v -54.640083 23.456066 185.604462
v -54.640091 23.456066 140.702179
v -76.496124 0.123438 140.702148
v -76.496117 0.123438 174.968979
v -76.496117 23.456066 174.968979
v -76.496124 23.456066 140.702148
v 98.352165 23.456066 -114.250809
v -98.352165 23.456066 -114.250809
v -98.352165 0.123439 -114.250809
v 98.352165 0.123439 -114.250809
v 98.352165 23.456066 114.250832
v -98.352165 23.456066 114.250832
v -98.352165 0.123439 114.250832
v 98.352165 0.123439 114.250832
v 98.352158 23.456066 -140.702103
v -98.352158 23.456066 -140.702103
v 98.352158 0.123438 -140.702103
v -98.352158 0.123438 -140.702103
v -76.496124 23.456066 -140.702118
v -76.496132 23.456066 -114.250824
v -76.496132 23.456066 114.250832
v -54.640091 23.456066 -140.702148
v -54.640099 23.456066 -114.250824
v -54.640099 23.456066 114.250832
v -32.784054 23.456066 -140.702179
v -32.784061 23.456066 -114.250824
v -32.784061 23.456066 114.250832
v -10.928017 23.456066 -140.702179
v -10.928020 23.456066 -114.250824
v -10.928020 23.456066 114.250832
v 10.928019 23.456066 -140.702179
v 10.928016 23.456066 -114.250824
v 10.928016 23.456066 114.250832
v 32.784054 23.456066 -140.702179
v 32.784050 23.456066 -114.250809
v 32.784050 23.456066 114.250832
v 54.640087 23.456066 -140.702148
v 54.640087 23.456066 -114.250809
v 54.640087 23.456066 114.250832
v 76.496124 23.456066 -140.702118
v 76.496124 23.456066 -114.250809
v 76.496124 23.456066 114.250832
v -98.352150 0.123438 -163.273666
v 98.352150 0.123438 -163.273666
v 98.352150 23.456066 -163.273666
v -98.352150 23.456066 -163.273666
v 76.496124 0.123438 -140.702118
v 76.496117 0.123438 -174.968964
v 76.496117 23.456066 -174.968964
v 54.640091 0.123438 -140.702148
v 54.640087 0.123438 -185.604446
v 54.640087 23.456066 -185.604446
v 32.784058 0.123438 -140.702179
v 32.784058 0.123438 -192.956635
v 32.784058 23.456066 -192.956635
v 10.928020 0.123438 -140.702179
v 10.928020 0.123438 -195.572189
v 10.928020 23.456066 -195.572189
v -10.928015 0.123438 -140.702179
v -10.928013 0.123438 -195.572189
v -10.928013 23.456066 -195.572189
v -32.784050 0.123438 -140.702179
v -32.784046 0.123438 -192.956635
v -32.784046 23.456066 -192.956635
v -54.640087 0.123438 -140.702148
v -54.640083 0.123438 -185.604446
v -54.640083 23.456066 -185.604446
v -76.496124 0.123438 -140.702118
v -76.496117 0.123438 -174.968964
v -76.496117 23.456066 -174.968964
v 76.496132 0.123439 -114.250809
v 76.496132 0.123439 114.250832
v 54.640091 0.123439 -114.250809
v 54.640091 0.123439 114.250832
v 32.784058 0.123439 -114.250809
v 32.784058 0.123439 114.250832
v 10.928019 0.123439 -114.250809
v 10.928019 0.123439 114.250832
v -10.928016 0.123439 -114.250809
v -10.928016 0.123439 114.250832
v -32.784054 0.123439 -114.250809
v -32.784054 0.123439 114.250832
v -54.640091 0.123439 -114.250809
v -54.640091 0.123439 114.250824
v -76.496124 0.123439 -114.250809
v -76.496124 0.123439 114.250824
vt 0.540167 0.127391
vt 0.589367 0.100671
vt 0.589367 0.178960
vt 0.540167 0.178960
vt 0.052718 0.178960
vt 0.101918 0.178960
vt 0.101918 0.100671
vt 0.052718 0.127391
vt 0.446317 0.178960
vt 0.495517 0.178960
vt 0.495517 0.127391
vt 0.446317 0.100671
vt 0.933767 0.178960
vt 0.933767 0.100671
vt 0.982966 0.127391
vt 0.982966 0.178960
vt 0.397117 0.178960
vt 0.397117 0.076372
vt 0.884566 0.178960
vt 0.884566 0.076372
vt 0.347917 0.178960
vt 0.347917 0.059574
vt 0.835367 0.178960
vt 0.835367 0.059574
vt 0.298717 0.178960
vt 0.298717 0.053599
vt 0.786167 0.178960
vt 0.786167 0.053599
vt 0.249517 0.178960
vt 0.249517 0.053599
vt 0.736967 0.178960
vt 0.736967 0.053599
vt 0.200318 0.178960
vt 0.200318 0.059574
vt 0.687767 0.178960
vt 0.687767 0.059574
vt 0.151118 0.178960
vt 0.151118 0.076372
vt 0.638567 0.178960
vt 0.638567 0.076372
vt 0.933767 0.761452
vt 0.982966 0.761452
vt 0.982966 0.821886
vt 0.933767 0.821886
vt 0.052718 0.821886
vt 0.101918 0.821886
vt 0.101918 0.761452
vt 0.052718 0.761452
vt 0.933767 0.239394
vt 0.982966 0.239394
vt 0.101918 0.239394
vt 0.052718 0.239394
vt 0.540167 0.761452
vt 0.589367 0.761452
vt 0.589367 0.821886
vt 0.540167 0.821886
vt 0.540167 0.239394
vt 0.589367 0.239394
vt 0.638567 0.761452
vt 0.638567 0.821886
vt 0.638567 0.239394
vt 0.687767 0.761452
vt 0.687767 0.821886
vt 0.687767 0.239394
vt 0.736967 0.761452
vt 0.736967 0.821886
vt 0.736967 0.239394
vt 0.786167 0.761452
vt 0.786167 0.821886
vt 0.786167 0.239394
vt 0.835367 0.761452
vt 0.835367 0.821886
vt 0.835367 0.239394
vt 0.884566 0.761452
vt 0.884566 0.821886
vt 0.884566 0.239394
vt 0.540167 0.873455
vt 0.589367 0.900175
vt 0.052718 0.873455
vt 0.101918 0.900175
vt 0.446317 0.821886
vt 0.446317 0.900175
vt 0.495517 0.873455
vt 0.495517 0.821886
vt 0.982966 0.873455
vt 0.933767 0.900175
vt 0.397117 0.821886
vt 0.397117 0.924474
vt 0.884566 0.924474
vt 0.347917 0.821886
vt 0.347917 0.941272
vt 0.835367 0.941272
vt 0.298717 0.821886
vt 0.298717 0.947247
vt 0.786167 0.947247
vt 0.249517 0.821886
vt 0.249517 0.947247
vt 0.736967 0.947247
vt 0.200318 0.821886
vt 0.200318 0.941272
vt 0.687767 0.941272
vt 0.151118 0.821886
vt 0.151118 0.924474
vt 0.638567 0.924474
vt 0.495517 0.761452
vt 0.446317 0.761452
vt 0.446317 0.239394
vt 0.495517 0.239394
vt 0.397117 0.761452
vt 0.397117 0.239394
vt 0.347917 0.761452
vt 0.347917 0.239394
vt 0.298717 0.761452
vt 0.298717 0.239394
vt 0.249517 0.761452
vt 0.249517 0.239394
vt 0.200318 0.761452
vt 0.200318 0.239394
vt 0.151118 0.761452
vt 0.151118 0.239394
vt 0.006398 0.989445
vt 0.006398 0.968366
vt 0.028189 0.968366
vt 0.028189 0.989445
vt 0.006398 0.943662
vt 0.028189 0.943662
vt 0.006398 0.730261
vt 0.028189 0.730261
vt 0.006398 0.705558
vt 0.028189 0.705558
vt 0.006398 0.684478
vt 0.028189 0.684478
vt 0.006398 0.216884
vt 0.006398 0.195804
vt 0.028189 0.195804
vt 0.028189 0.216884
vt 0.006398 0.241587
vt 0.028189 0.241587
vt 0.006398 0.454989
vt 0.028189 0.454989
vt 0.006398 0.479692
vt 0.028189 0.479692
vt 0.028189 0.500772
vt 0.006398 0.500772
vt 0.006398 0.175392
vt 0.028189 0.175392
vt 0.006398 0.154981
vt 0.028189 0.154981
vt 0.006398 0.134569
vt 0.028189 0.134569
vt 0.006398 0.114157
vt 0.028189 0.114157
vt 0.006398 0.093745
vt 0.028189 0.093745
vt 0.006398 0.073334
vt 0.028189 0.073334
vt 0.006398 0.052922
vt 0.028189 0.052922
vt 0.006398 0.032510
vt 0.028189 0.032510
vt 0.006398 0.012099
vt 0.028189 0.012099
vt 0.028189 0.521184
vt 0.006398 0.521184
vt 0.028189 0.541596
vt 0.006398 0.541596
vt 0.028189 0.562007
vt 0.006398 0.562007
vt 0.028189 0.582419
vt 0.006398 0.582419
vt 0.028189 0.602831
vt 0.006398 0.602831
vt 0.028189 0.623242
vt 0.006398 0.623242
vt 0.028189 0.643654
vt 0.006398 0.643654
vt 0.028189 0.664066
vt 0.006398 0.664066
vn -0.471805 0.000000 0.881703
vn -0.454935 0.000000 0.890525
vn -0.454935 0.000000 0.890525
vn -0.471805 0.000000 0.881703
vn 0.000000 1.000000 0.000000
vn 0.000000 1.000000 0.000000
vn 0.000000 1.000000 0.000000
vn 0.000000 1.000000 0.000000
vn -0.000000 -1.000000 -0.000000
vn -0.000000 -1.000000 -0.000000
vn 0.000000 -1.000000 -0.000000
vn -0.000000 -1.000000 -0.000000
vn 1.000000 0.000000 0.000000
vn 1.000000 0.000000 0.000000
vn 1.000000 0.000000 0.000000
vn 1.000000 0.000000 0.000000
vn -1.000000 0.000000 0.000000
vn -1.000000 0.000000 0.000000
vn -1.000000 0.000000 0.000000
vn -1.000000 0.000000 0.000000
vn 0.000000 -1.000000 -0.000000
vn 0.000000 -1.000000 -0.000000
vn 0.000000 -1.000000 -0.000000
vn -0.000000 -1.000000 -0.000000
vn 0.454935 0.000000 0.890525
vn 0.454935 0.000000 0.890525
vn 0.471805 0.000000 0.881703
vn 0.471805 0.000000 0.881703
vn 0.000000 1.000000 0.000000
vn 0.000000 1.000000 0.000000
vn 0.000000 1.000000 0.000000
vn 0.000000 1.000000 0.000000
vn -0.000000 -1.000000 -0.000000
vn -0.000000 -1.000000 -0.000000
vn 0.380543 0.000000 0.924763
vn 0.380543 0.000000 0.924763
vn 0.000000 1.000000 0.000000
vn 0.000000 1.000000 0.000000
vn -0.000000 -1.000000 -0.000000
vn -0.000000 -1.000000 -0.000000
vn 0.222324 0.000000 0.974973
vn 0.222324 0.000000 0.974973
vn 0.000000 1.000000 -0.000000
vn 0.000000 1.000000 -0.000000
vn -0.000000 -1.000000 -0.000000
vn -0.000000 -1.000000 -0.000000
vn 0.059729 0.000000 0.998215
vn 0.059729 0.000000 0.998215
vn 0.000000 1.000000 -0.000000
vn 0.000000 1.000000 0.000000
vn 0.000000 -1.000000 -0.000000
vn 0.000000 -1.000000 -0.000000
vn -0.059729 0.000000 0.998215
vn -0.059729 0.000000 0.998215
vn 0.000000 1.000000 0.000000
vn 0.000000 1.000000 0.000000
vn 0.000000 -1.000000 -0.000000
vn 0.000000 -1.000000 -0.000000
vn -0.222324 0.000000 0.974973
vn -0.222324 0.000000 0.974973
vn 0.000000 1.000000 0.000000
vn 0.000000 1.000000 0.000000
vn 0.000000 -1.000000 -0.000000
vn 0.000000 -1.000000 -0.000000
vn -0.380543 0.000000 0.924763
vn -0.380543 0.000000 0.924763
vn 0.000000 1.000000 0.000000
vn 0.000000 1.000000 0.000000
vn 0.000000 1.000000 0.000000
vn 0.000000 1.000000 0.000000
vn 0.000000 1.000000 0.000000
vn 0.000000 1.000000 0.000000
vn -1.000000 0.000000 -0.000000
vn -1.000000 0.000000 -0.000000
vn -1.000000 0.000000 -0.000000
vn -1.000000 0.000000 -0.000000
vn -0.000000 -1.000000 0.000000
vn -0.000000 -1.000000 0.000000
vn -0.000000 -1.000000 0.000000
vn -0.000000 -1.000000 0.000000
vn 1.000000 0.000000 -0.000000
vn 1.000000 0.000000 -0.000000
vn 1.000000 0.000000 -0.000000
vn 1.000000 0.000000 -0.000000
vn 0.000000 1.000000 0.000000
vn 0.000000 1.000000 0.000000
vn -1.000000 0.000000 0.000000
vn -1.000000 0.000000 0.000000
vn -0.000000 -1.000000 -0.000000
vn -0.000000 -1.000000 -0.000000
vn 1.000000 0.000000 0.000000
vn 1.000000 0.000000 0.000000
vn 0.000000 1.000000 0.000000
vn 0.000000 1.000000 0.000000
vn -1.000000 0.000000 0.000000
vn -1.000000 0.000000 0.000000
vn -0.000000 -1.000000 -0.000000
vn -0.000000 -1.000000 -0.000000
vn 1.000000 0.000000 0.000000
vn 1.000000 0.000000 0.000000
vn 0.000000 1.000000 -0.000000
vn 0.000000 1.000000 -0.000000
vn 0.000000 1.000000 -0.000000
vn 0.000000 1.000000 -0.000000
vn 0.000000 1.000000 0.000000
vn 0.000000 1.000000 0.000000
vn 0.000000 1.000000 0.000000
vn 0.000000 1.000000 0.000000
vn 0.000000 1.000000 -0.000000
vn 0.000000 1.000000 -0.000000
vn 0.000000 1.000000 0.000000
vn 0.000000 1.000000 0.000000
vn 0.000000 1.000000 0.000000
vn 0.000000 1.000000 0.000000
vn 0.000000 1.000000 -0.000000
vn 0.000000 1.000000 -0.000000
vn 0.000000 1.000000 0.000000
vn 0.000000 1.000000 0.000000
vn 0.000000 1.000000 -0.000000
vn 0.000000 1.000000 -0.000000
vn 0.000000 1.000000 0.000000
vn 0.000000 1.000000 0.000000
vn 0.000000 1.000000 -0.000000
vn 0.000000 1.000000 -0.000000
vn 0.000000 1.000000 0.000000
vn 0.000000 1.000000 0.000000
vn 0.000000 1.000000 -0.000000
vn 0.000000 1.000000 -0.000000
vn 0.000000 1.000000 -0.000000
vn 0.000000 1.000000 -0.000000
vn 0.000000 1.000000 0.000000
vn 0.000000 1.000000 0.000000
vn -0.471805 0.000000 -0.881703
vn -0.471805 0.000000 -0.881703
vn -0.454934 0.000000 -0.890525
vn -0.454934 0.000000 -0.890525
vn 0.000000 1.000000 0.000000
vn 0.000000 1.000000 0.000000
vn 0.000000 1.000000 -0.000000
vn 0.000000 1.000000 -0.000000
vn -0.000000 -1.000000 0.000000
vn -0.000000 -1.000000 0.000000
vn 0.000000 -1.000000 0.000000
vn -0.000000 -1.000000 0.000000
vn 1.000000 0.000000 -0.000000
vn 1.000000 0.000000 -0.000000
vn 1.000000 0.000000 -0.000000
vn 1.000000 0.000000 -0.000000
vn -1.000000 0.000000 -0.000000
vn -1.000000 0.000000 -0.000000
vn -1.000000 0.000000 -0.000000
vn -1.000000 0.000000 -0.000000
vn 0.000000 -1.000000 0.000000
vn -0.000000 -1.000000 0.000000
vn 0.000000 -1.000000 0.000000
vn 0.000000 -1.000000 0.000000
vn 0.454934 0.000000 -0.890525
vn 0.471805 0.000000 -0.881703
vn 0.471805 0.000000 -0.881703
vn 0.454934 0.000000 -0.890525
vn 0.000000 1.000000 0.000000
vn 0.000000 1.000000 0.000000
vn 0.000000 1.000000 0.000000
vn 0.000000 1.000000 0.000000
vn -0.000000 -1.000000 0.000000
vn -0.000000 -1.000000 0.000000
vn 0.380543 0.000000 -0.924763
vn 0.380543 0.000000 -0.924763
vn 0.000000 1.000000 0.000000
vn 0.000000 1.000000 0.000000
vn -0.000000 -1.000000 0.000000
vn -0.000000 -1.000000 0.000000
vn 0.222325 0.000000 -0.974973
vn 0.222325 0.000000 -0.974973
vn 0.000000 1.000000 0.000000
vn 0.000000 1.000000 0.000000
vn -0.000000 -1.000000 0.000000
vn -0.000000 -1.000000 0.000000
vn 0.059729 0.000000 -0.998215
vn 0.059729 0.000000 -0.998215
vn 0.000000 1.000000 0.000000
vn 0.000000 1.000000 0.000000
vn 0.000000 -1.000000 0.000000
vn 0.000000 -1.000000 0.000000
vn -0.059729 0.000000 -0.998215
vn -0.059729 0.000000 -0.998215
vn 0.000000 1.000000 -0.000000
vn 0.000000 1.000000 -0.000000
vn 0.000000 -1.000000 0.000000
vn 0.000000 -1.000000 0.000000
vn -0.222325 0.000000 -0.974973
vn -0.222325 0.000000 -0.974973
vn 0.000000 1.000000 -0.000000
vn 0.000000 1.000000 -0.000000
vn 0.000000 -1.000000 0.000000
vn 0.000000 -1.000000 0.000000
vn -0.380543 0.000000 -0.924763
vn -0.380543 0.000000 -0.924763
vn 0.000000 1.000000 -0.000000
vn 0.000000 1.000000 -0.000000
vn 0.000000 -1.000000 0.000000
vn 0.000000 -1.000000 0.000000
vn 0.000000 -1.000000 0.000000
vn 0.000000 -1.000000 0.000000
vn 0.000000 -1.000000 -0.000000
vn 0.000000 -1.000000 -0.000000
vn 0.000000 -1.000000 -0.000000
vn 0.000000 -1.000000 -0.000000
vn -0.000000 -1.000000 0.000000
vn -0.000000 -1.000000 0.000000
vn -0.000000 -1.000000 -0.000000
vn -0.000000 -1.000000 -0.000000
vn -0.000000 -1.000000 0.000000
vn -0.000000 -1.000000 0.000000
vn -0.000000 -1.000000 -0.000000
vn -0.000000 -1.000000 -0.000000
vn 0.000000 -1.000000 0.000000
vn 0.000000 -1.000000 0.000000
vn -0.000000 -1.000000 -0.000000
vn -0.000000 -1.000000 -0.000000
vn 0.000000 -1.000000 0.000000
vn 0.000000 -1.000000 0.000000
vn 0.000000 -1.000000 -0.000000
vn 0.000000 -1.000000 -0.000000
vn 0.000000 -1.000000 0.000000
vn 0.000000 -1.000000 0.000000
vn 0.000000 -1.000000 -0.000000
vn 0.000000 -1.000000 -0.000000
vn 0.000000 -1.000000 0.000000
vn 0.000000 -1.000000 0.000000
vn 0.000000 -1.000000 -0.000000
vn 0.000000 -1.000000 -0.000000
s 1
g low
usemtl initialShadingGroup
f 1/134/1 38/145/2 39/146/3 4/135/4
s 2
f 4/1/5 39/2/6 40/3/7 6/4/8
s 3
f 8/5/9 37/6/10 38/7/11 1/8/12
s off
f 2/121/13 7/122/14 5/123/15 3/124/16
f 8/133/17 1/134/18 4/135/19 6/136/20
s 3
f 9/9/21 7/10/22 2/11/23 10/12/24
s 1
f 11/160/25 10/159/26 2/161/27 3/162/28
s 2
f 12/13/29 11/14/30 3/15/31 5/16/32
s 3
f 13/17/33 9/9/21 10/12/24 14/18/34
s 1
f 15/158/35 14/157/36 10/159/26 11/160/25
s 2
f 16/19/37 15/20/38 11/14/30 12/13/29
s 3
f 17/21/39 13/17/33 14/18/34 18/22/40
s 1
f 19/156/41 18/155/42 14/157/36 15/158/35
s 2
f 20/23/43 19/24/44 15/20/38 16/19/37
s 3
f 21/25/45 17/21/39 18/22/40 22/26/46
s 1
f 23/154/47 22/153/48 18/155/42 19/156/41
s 2
f 24/27/49 23/28/50 19/24/44 20/23/43
s 3
f 25/29/51 21/25/45 22/26/46 26/30/52
s 1
f 27/152/53 26/151/54 22/153/48 23/154/47
s 2
f 28/31/55 27/32/56 23/28/50 24/27/49
s 3
f 29/33/57 25/29/51 26/30/52 30/34/58
s 1
f 31/150/59 30/149/60 26/151/54 27/152/53
s 2
f 32/35/61 31/36/62 27/32/56 28/31/55
s 3
f 33/37/63 29/33/57 30/34/58 34/38/64
s 1
f 35/148/65 34/147/66 30/149/60 31/150/59
s 2
f 36/39/67 35/40/68 31/36/62 32/35/61
s 3
f 37/6/10 33/37/63 34/38/64 38/7/11
s 1
f 39/146/3 38/145/2 34/147/66 35/148/65
s 2
f 40/3/7 39/2/6 35/40/68 36/39/67
s 7
f 75/41/69 41/42/70 49/43/71 74/44/72
s 8
f 52/141/73 43/139/74 42/140/75 50/142/76
s 9
f 52/45/77 102/46/78 119/47/79 43/48/80
s 10
f 41/128/81 44/127/82 51/129/83 49/130/84
s 7
f 76/49/85 45/50/86 41/42/70 75/41/69
s 8
f 43/139/74 47/137/87 46/138/88 42/140/75
s 9
f 43/48/80 119/47/79 120/51/89 47/52/90
s 10
f 45/126/91 48/125/92 44/127/82 41/128/81
s 7
f 12/13/93 5/16/94 45/50/86 76/49/85
s 8
f 47/137/87 8/133/95 6/136/96 46/138/88
s 9
f 47/52/90 120/51/89 37/6/97 8/5/98
s 10
f 5/123/99 7/122/100 48/125/92 45/126/91
s 7
f 42/53/101 54/54/102 53/55/103 50/56/104
f 46/57/105 55/58/106 54/54/102 42/53/101
f 6/4/107 40/3/108 55/58/106 46/57/105
f 54/54/102 57/59/109 56/60/110 53/55/103
f 55/58/106 58/61/111 57/59/109 54/54/102
f 40/3/108 36/39/112 58/61/111 55/58/106
f 57/59/109 60/62/113 59/63/114 56/60/110
f 58/61/111 61/64/115 60/62/113 57/59/109
f 36/39/112 32/35/116 61/64/115 58/61/111
f 60/62/113 63/65/117 62/66/118 59/63/114
f 61/64/115 64/67/119 63/65/117 60/62/113
f 32/35/116 28/31/120 64/67/119 61/64/115
f 63/65/117 66/68/121 65/69/122 62/66/118
f 64/67/119 67/70/123 66/68/121 63/65/117
f 28/31/120 24/27/124 67/70/123 64/67/119
f 66/68/121 69/71/125 68/72/126 65/69/122
f 67/70/123 70/73/127 69/71/125 66/68/121
f 24/27/124 20/23/128 70/73/127 67/70/123
f 69/71/125 72/74/129 71/75/130 68/72/126
f 70/73/127 73/76/131 72/74/129 69/71/125
f 20/23/128 16/19/132 73/76/131 70/73/127
f 72/74/129 75/41/69 74/44/72 71/75/130
f 73/76/131 76/49/85 75/41/69 72/74/129
f 16/19/132 12/13/93 76/49/85 73/76/131
s 12
f 77/144/133 80/143/134 104/163/135 103/164/136
s 13
f 80/77/137 50/56/138 53/55/139 104/78/140
s 14
f 52/45/141 77/79/142 103/80/143 102/46/144
s off
f 78/131/145 79/132/146 49/130/147 51/129/148
f 52/141/149 50/142/150 80/143/151 77/144/152
s 14
f 81/81/153 82/82/154 78/83/155 51/84/156
s 12
f 83/177/157 79/132/158 78/131/159 82/178/160
s 13
f 74/44/161 49/43/162 79/85/163 83/86/164
s 14
f 84/87/165 85/88/166 82/82/154 81/81/153
s 12
f 86/175/167 83/177/157 82/178/160 85/176/168
s 13
f 71/75/169 74/44/161 83/86/164 86/89/170
s 14
f 87/90/171 88/91/172 85/88/166 84/87/165
s 12
f 89/173/173 86/175/167 85/176/168 88/174/174
s 13
f 68/72/175 71/75/169 86/89/170 89/92/176
s 14
f 90/93/177 91/94/178 88/91/172 87/90/171
s 12
f 92/171/179 89/173/173 88/174/174 91/172/180
s 13
f 65/69/181 68/72/175 89/92/176 92/95/182
s 14
f 93/96/183 94/97/184 91/94/178 90/93/177
s 12
f 95/169/185 92/171/179 91/172/180 94/170/186
s 13
f 62/66/187 65/69/181 92/95/182 95/98/188
s 14
f 96/99/189 97/100/190 94/97/184 93/96/183
s 12
f 98/167/191 95/169/185 94/170/186 97/168/192
s 13
f 59/63/193 62/66/187 95/98/188 98/101/194
s 14
f 99/102/195 100/103/196 97/100/190 96/99/189
s 12
f 101/165/197 98/167/191 97/168/192 100/166/198
s 13
f 56/60/199 59/63/193 98/101/194 101/104/200
s 14
f 102/46/144 103/80/143 100/103/196 99/102/195
s 12
f 104/163/135 101/165/197 100/166/198 103/164/136
s 13
f 53/55/139 56/60/199 101/104/200 104/78/140
s 9
f 81/81/201 51/84/202 44/105/203 105/106/204
f 106/107/205 105/106/204 44/105/203 48/108/206
f 9/9/207 106/107/205 48/108/206 7/10/208
f 84/87/209 81/81/201 105/106/204 107/109/210
f 108/110/211 107/109/210 105/106/204 106/107/205
f 13/17/212 108/110/211 106/107/205 9/9/207
f 87/90/213 84/87/209 107/109/210 109/111/214
f 110/112/215 109/111/214 107/109/210 108/110/211
f 17/21/216 110/112/215 108/110/211 13/17/212
f 90/93/217 87/90/213 109/111/214 111/113/218
f 112/114/219 111/113/218 109/111/214 110/112/215
f 21/25/220 112/114/219 110/112/215 17/21/216
f 93/96/221 90/93/217 111/113/218 113/115/222
f 114/116/223 113/115/222 111/113/218 112/114/219
f 25/29/224 114/116/223 112/114/219 21/25/220
f 96/99/225 93/96/221 113/115/222 115/117/226
f 116/118/227 115/117/226 113/115/222 114/116/223
f 29/33/228 116/118/227 114/116/223 25/29/224
f 99/102/229 96/99/225 115/117/226 117/119/230
f 118/120/231 117/119/230 115/117/226 116/118/227
f 33/37/232 118/120/231 116/118/227 29/33/228
f 102/46/78 99/102/229 117/119/230 119/47/79
f 120/51/89 119/47/79 117/119/230 118/120/231
f 37/6/97 120/51/89 118/120/231 33/37/232
