# This file uses centimeters as units for non-parametric coordinates.

mtllib window3.mtl
g default
v 0.000000 3.484521 0.000000
v 0.000000 0.000000 0.000000
v 0.000000 3.484521 4.336523
v 0.000000 0.000000 4.336523
v 0.000000 3.484521 1.049919
v 0.000000 0.000000 1.049919
v 0.000000 3.484521 3.286604
v 0.000000 0.000000 3.286604
v 0.000000 0.660278 0.000000
v 0.000000 0.660278 1.049919
v 0.000000 0.660278 3.286604
v 0.000000 0.660278 4.336523
v 0.000000 2.824244 0.000000
v 0.000000 2.824244 1.049919
v 0.000000 2.824244 3.286604
v 0.000000 2.824244 4.336523
vt 0.993625 0.998008
vt 0.753538 0.998008
vt 0.753538 0.781131
vt 0.993625 0.781131
vt 0.242071 0.998008
vt 0.001983 0.998008
vt 0.001983 0.781131
vt 0.242071 0.781131
vt 0.242071 0.218869
vt 0.001983 0.218869
vt 0.001983 0.001992
vt 0.242071 0.001992
vt 0.753538 0.218869
vt 0.753538 0.001992
vt 0.993625 0.218869
vt 0.993625 0.001992
vn -1.000000 0.000000 0.000000
vn -1.000000 0.000000 0.000000
vn -1.000000 0.000000 0.000000
vn -1.000000 0.000000 0.000000
vn -1.000000 0.000000 0.000000
vn -1.000000 0.000000 0.000000
vn -1.000000 0.000000 0.000000
vn -1.000000 0.000000 0.000000
vn -1.000000 0.000000 0.000000
vn -1.000000 0.000000 0.000000
vn -1.000000 0.000000 0.000000
vn -1.000000 0.000000 0.000000
vn -1.000000 0.000000 0.000000
vn -1.000000 0.000000 0.000000
vn -1.000000 0.000000 0.000000
vn -1.000000 0.000000 0.000000
vn -1.000000 0.000000 0.000000
vn -1.000000 0.000000 0.000000
vn -1.000000 0.000000 0.000000
vn -1.000000 0.000000 0.000000
vn -1.000000 0.000000 0.000000
vn -1.000000 0.000000 0.000000
vn -1.000000 0.000000 0.000000
vn -1.000000 0.000000 0.000000
vn -1.000000 0.000000 0.000000
vn -1.000000 0.000000 0.000000
vn -1.000000 0.000000 0.000000
vn -1.000000 0.000000 0.000000
vn -1.000000 0.000000 0.000000
vn -1.000000 0.000000 0.000000
vn -1.000000 0.000000 0.000000
vn -1.000000 0.000000 0.000000
s off
g window:pPlane1 wall_mid1:group2
usemtl window:Window1SG
f 3/1/1 7/2/2 15/3/3 16/4/4
f 5/5/5 1/6/6 13/7/7 14/8/8
f 7/2/9 5/5/10 14/8/11 15/3/12
f 10/9/13 9/10/14 2/11/15 6/12/16
f 11/13/17 10/9/18 6/12/19 8/14/20
f 12/15/21 11/13/22 8/14/23 4/16/24
f 14/8/25 13/7/26 9/10/27 10/9/28
f 16/4/29 15/3/30 11/13/31 12/15/32
g default
v -0.213623 2.765611 3.086853
v -0.237244 2.788301 3.106201
v -0.237244 3.029810 0.851501
v -0.213928 3.053980 0.852203
v -0.213928 3.033912 0.826691
v 0.237244 3.033912 0.851013
v 0.214844 3.034937 0.826630
v 0.211487 3.053394 0.852417
v 0.213318 2.765611 0.867554
v 0.214417 2.787525 0.842346
v 0.237244 2.787847 0.865540
v -0.213623 2.788258 0.842316
v -0.214294 2.765611 0.866669
v -0.237244 2.788301 0.865967
v 0.214478 2.765611 3.452576
v 0.237244 2.787847 3.454529
v 0.214478 2.787393 3.477722
v 0.214661 2.999429 3.496033
v 0.237244 2.998785 3.472717
v 0.212036 3.017652 3.472717
v -0.237244 2.788301 3.454041
v -0.213623 2.765611 3.452209
v -0.213623 2.788228 3.477783
v -0.213928 2.998579 3.495972
v -0.214172 3.019526 3.471436
v -0.237244 2.995459 3.471130
v -0.213623 2.765611 1.240997
v -0.237244 2.788301 1.221680
v 0.213562 2.765611 3.111206
v 0.237244 2.788272 3.111206
v 0.237244 2.943985 3.111389
v 0.213562 2.966294 3.107727
v -0.213623 2.965987 3.107788
v -0.237244 2.942857 3.106079
v -0.237244 2.985059 1.221680
v -0.213623 3.009038 1.209076
v 0.213440 3.010709 1.203644
v 0.237244 2.988414 1.200378
v 0.237244 2.788258 1.203461
v 0.213623 2.765611 1.204834
v -0.193542 0.471226 3.073914
v -0.216919 0.493660 3.075684
v -0.193542 0.487567 1.247009
v -0.216919 0.510022 1.246002
v -0.193542 0.702334 1.247009
v -0.216919 0.679886 1.226532
v -0.193542 0.702334 3.054810
v -0.216919 0.679886 3.075562
v -0.194092 0.443936 0.854767
v -0.216919 0.467740 0.855164
v -0.194092 0.464487 0.830597
v -0.194519 0.680874 0.850128
v -0.216919 0.679886 0.873535
v -0.194519 0.702334 0.874512
v 0.223511 0.680340 0.873077
v 0.201416 0.681189 0.850159
v 0.199829 0.702334 0.875031
v 0.198120 0.446807 0.856049
v 0.201172 0.463990 0.830566
v 0.223511 0.464802 0.854645
v 0.200134 0.487567 1.247009
v 0.223511 0.510030 1.245697
v 0.223511 0.679886 1.247009
v 0.200134 0.702334 1.247009
v 0.223511 0.679886 3.073914
v 0.200134 0.702334 3.073914
v 0.200134 0.471226 3.073914
v 0.223511 0.493660 3.075806
v 0.201355 0.681387 3.464050
v 0.223511 0.680794 3.441345
v 0.200012 0.702334 3.438049
v 0.198669 0.411834 3.486694
v 0.223511 0.431067 3.485657
v 0.201294 0.429720 3.509888
v -0.195313 0.702334 3.438660
v -0.216919 0.679886 3.440613
v -0.195313 0.681915 3.463928
v -0.194214 0.430217 3.509827
v -0.216919 0.432532 3.484680
v -0.194214 0.408406 3.487122
v -0.216919 0.679886 1.247528
v 0.200134 0.702334 1.221558
v 0.223511 0.679922 1.219574
v 0.223511 0.506192 1.212524
v 0.199951 0.483765 1.212738
v -0.193542 0.484234 1.210480
v -0.216919 0.506924 1.212067
v 0.200134 0.702334 3.050476
v 0.223511 0.679886 3.050476
v 0.223511 0.494114 3.052246
v 0.200134 0.471680 3.050476
v -0.193542 0.471680 3.050476
v -0.216919 0.494114 3.052185
v -0.216919 0.679886 3.052124
v -0.193542 0.702334 1.227356
v -0.193665 0.702334 3.075867
v -0.173828 2.496841 3.333557
v -0.149658 2.496841 3.357727
v 0.184448 2.496841 3.333557
v 0.160278 2.496841 3.357727
v 0.160278 1.201378 3.110779
v 0.184448 1.199766 3.134888
v -0.173828 2.498936 3.161926
v -0.149658 2.496841 3.137695
v -0.173828 1.201378 3.333557
v -0.149658 1.201378 3.357727
v -0.149658 1.201378 3.110779
v -0.173828 1.199766 3.134888
v 0.160278 2.496841 3.137695
v 0.184448 2.498936 3.161926
v 0.160278 1.201378 3.357727
v 0.184448 1.201378 3.333557
v -0.001587 2.496841 3.357727
v -0.001587 1.201378 3.357727
v -0.173828 2.877100 3.082275
v -0.149658 2.853926 3.062500
v -0.149658 2.853926 3.357727
v -0.173828 2.877100 3.333557
v 0.184448 2.853926 3.333496
v 0.160217 2.853926 3.357727
v 0.184448 0.646422 3.065735
v 0.160278 0.646422 3.041382
v -0.149658 0.646422 3.041382
v -0.173828 0.623233 3.062805
v 0.160278 0.646422 3.357727
v 0.184448 0.646422 3.333557
v -0.173828 0.623233 3.333557
v -0.149658 0.646422 3.357727
v 0.160278 2.853926 3.062500
v 0.184448 2.853926 3.087158
v -0.001587 2.853926 3.357727
v -0.001587 0.646422 3.357727
v -0.049866 1.766704 3.116455
v -0.034485 1.781441 3.116455
v -0.049866 1.766704 2.560852
v -0.034485 1.781441 2.576172
v 0.037170 1.781441 3.116455
v 0.052490 1.766704 3.116455
v 0.037170 1.781441 2.576172
v 0.052490 1.766704 2.560852
v -0.049866 1.676514 1.148376
v -0.034485 1.661778 1.148376
v -0.049866 1.676514 1.758087
v -0.034485 1.661778 1.742737
v 0.037170 1.661778 1.148376
v 0.052490 1.676514 1.148376
v 0.037170 1.661778 1.742737
v 0.052490 1.676514 1.758087
v 0.052490 1.676514 3.116455
v 0.037170 1.661778 3.116455
v 0.052490 1.676514 2.560852
v 0.037170 1.661778 2.576172
v -0.034485 1.661778 3.116455
v -0.049866 1.676514 3.116455
v -0.034485 1.661778 2.576172
v -0.049866 1.676514 2.560852
v 0.052490 1.766704 2.455933
v 0.037170 1.781441 2.440552
v 0.037170 1.781441 1.882813
v 0.052490 1.766704 1.867462
v -0.034485 1.781441 2.440552
v -0.049866 1.766704 2.455933
v -0.049866 1.766704 1.867462
v -0.034485 1.781441 1.882813
v 0.052490 1.766704 1.148376
v 0.037170 1.781441 1.148376
v 0.052490 1.766704 1.758087
v 0.037170 1.781441 1.742737
v -0.034485 1.781441 1.148376
v -0.049866 1.766704 1.148376
v -0.034485 1.781441 1.742737
v -0.049866 1.766704 1.758087
v 0.037170 1.661778 2.440552
v 0.052490 1.676514 2.455933
v 0.052490 1.676514 1.867462
v 0.037170 1.661778 1.882813
v -0.049866 1.672501 2.455933
v -0.031067 1.661778 2.440552
v -0.049866 1.201070 2.455933
v -0.034485 1.215806 2.440552
v 0.037170 1.215806 2.440552
v 0.052490 1.201070 2.455933
v 0.052490 1.201070 2.560852
v 0.037170 1.215806 2.576172
v -0.034485 1.215806 2.576172
v -0.049866 1.201070 2.560852
v -0.049866 1.201070 1.758087
v -0.034485 1.215806 1.742737
v 0.037170 1.215806 1.742737
v 0.052490 1.201070 1.758087
v 0.052490 1.201070 1.867462
v 0.037170 1.215806 1.882813
v -0.031067 1.661778 1.882813
v -0.049866 1.672501 1.867462
v -0.034485 1.215806 1.882813
v -0.049866 1.201070 1.867462
v -0.049866 1.201070 1.151886
v -0.034485 1.215806 1.151886
v 0.052490 1.201070 1.151886
v 0.037170 1.215806 1.151886
v 0.037170 1.105723 1.742737
v 0.052490 1.120459 1.758087
v 0.037170 1.105723 1.151886
v 0.052490 1.120459 1.151886
v -0.049866 1.120459 1.758087
v -0.034485 1.105723 1.742737
v -0.049866 1.120459 1.151886
v -0.034485 1.105723 1.151886
v 0.052490 1.201070 3.143982
v 0.037170 1.215806 3.143982
v -0.049866 1.201070 3.143982
v -0.034485 1.215806 3.143982
v -0.034485 1.105723 2.576172
v -0.049866 1.120459 2.560852
v -0.034485 1.105723 3.143982
v -0.049866 1.120459 3.143982
v 0.052490 1.120459 2.560852
v 0.037170 1.105723 2.576172
v 0.052490 1.120459 3.143982
v 0.037170 1.105723 3.143982
v 0.037170 1.105723 2.440552
v 0.052490 1.120459 2.455933
v 0.052490 1.120459 1.867462
v 0.037170 1.105723 1.882813
v -0.049866 1.120459 2.455933
v -0.034485 1.105723 2.440552
v -0.034485 1.105723 1.882813
v -0.049866 1.120459 1.867462
v -0.049866 0.639368 2.455933
v -0.034485 0.639368 2.440552
v 0.052490 0.639368 2.455933
v 0.037170 0.639368 2.440552
v 0.037170 0.639368 2.576172
v 0.052490 0.639368 2.560852
v -0.049866 0.639368 2.560852
v -0.034485 0.639368 2.576172
v -0.049866 0.639368 1.758087
v -0.034485 0.639368 1.742737
v 0.052490 0.639368 1.758087
v 0.037170 0.639368 1.742737
v 0.037170 0.639368 1.882813
v 0.052490 0.639368 1.867462
v -0.049866 0.639368 1.867462
v -0.034485 0.639368 1.882813
v -0.049866 2.269996 2.560852
v -0.034485 2.255259 2.576172
v 0.037170 2.255259 2.576172
v 0.052490 2.269996 2.560852
v 0.052490 2.269996 2.455933
v 0.037170 2.255259 2.440552
v -0.034485 2.255259 2.440552
v -0.049866 2.269996 2.455933
v -0.049866 2.269996 1.867462
v -0.034485 2.255259 1.882813
v 0.037170 2.255259 1.882813
v 0.052490 2.269996 1.867462
v 0.052490 2.269996 1.758087
v 0.037170 2.255259 1.742737
v -0.034485 2.255259 1.742737
v -0.049866 2.269996 1.758087
v -0.034485 2.819957 2.576172
v -0.049866 2.819957 2.560852
v -0.034485 2.386070 2.576172
v -0.049866 2.371319 2.560852
v -0.049866 2.819957 2.455933
v -0.034485 2.819957 2.440552
v -0.049866 2.371319 2.455933
v -0.034485 2.386070 2.440552
v 0.037170 2.819957 2.440552
v 0.052490 2.819957 2.455933
v 0.037170 2.386070 2.440552
v 0.052490 2.371319 2.455933
v 0.052490 2.819957 2.560852
v 0.037170 2.819957 2.576172
v 0.052490 2.371319 2.560852
v 0.037170 2.386070 2.576172
v -0.034485 2.819957 1.882813
v -0.049866 2.819957 1.867462
v -0.034485 2.386070 1.882813
v -0.049866 2.371319 1.867462
v -0.049866 2.819957 1.758087
v -0.034485 2.819957 1.742737
v -0.049866 2.371319 1.758087
v -0.034485 2.386070 1.742737
v 0.037170 2.819957 1.742737
v 0.052490 2.819957 1.758087
v 0.037170 2.386070 1.742737
v 0.052490 2.371319 1.758087
v 0.052490 2.819957 1.867462
v 0.037170 2.819957 1.882813
v 0.052490 2.371319 1.867462
v 0.037170 2.386070 1.882813
v 0.052490 2.269996 1.149353
v 0.037170 2.255259 1.149353
v -0.049866 2.269996 1.149353
v -0.034485 2.255259 1.149353
v -0.034485 2.386070 1.149353
v -0.049866 2.371319 1.149353
v 0.052490 2.371319 1.149353
v 0.037170 2.386070 1.149353
v -0.049866 2.269996 3.169373
v -0.034485 2.255259 3.169373
v 0.052490 2.269996 3.169373
v 0.037170 2.255259 3.169373
v 0.037170 2.386070 3.169373
v 0.052490 2.371319 3.169373
v -0.049866 2.371319 3.169373
v -0.034485 2.386070 3.169373
v -0.181030 0.893584 0.971222
v -0.155945 0.894383 0.946106
v 0.191650 0.893584 0.971222
v 0.166565 0.894383 0.946106
v 0.166565 2.585801 1.179932
v 0.191650 2.588057 1.154785
v -0.181030 0.892618 1.177887
v -0.155945 0.894383 1.203003
v -0.181030 2.587222 0.971222
v -0.155945 2.585816 0.946106
v -0.155945 2.585801 1.179932
v -0.181030 2.588057 1.154785
v 0.166565 0.894383 1.203003
v 0.191650 0.892618 1.177887
v 0.166565 2.585801 0.946106
v 0.191650 2.587208 0.971222
v -0.001892 0.894383 0.946106
v -0.001892 2.585816 0.946106
v -0.155945 0.601912 0.925995
v -0.181030 0.577793 0.949524
v 0.191650 0.601912 0.951141
v 0.166565 0.601912 0.925995
v 0.191650 2.898428 1.220001
v 0.166565 2.898428 1.245636
v -0.181030 0.577793 1.221832
v -0.155945 0.601912 1.243835
v 0.166321 2.898428 0.908020
v 0.191650 2.898428 0.933563
v -0.181030 2.922554 0.930359
v -0.155945 2.898428 0.908020
v -0.155945 2.898428 1.245636
v -0.181030 2.922554 1.225067
v 0.166565 0.601912 1.243835
v 0.191650 0.601912 1.218475
v -0.001892 2.898428 0.908020
v -0.001892 0.601912 0.925995
v -0.002563 3.053687 0.852295
v -0.001404 3.009859 1.206390
v -0.001343 2.966133 3.107788
v -0.002380 3.018590 3.472107
v -0.000977 2.998990 3.495972
v -0.000916 2.787818 3.477722
v -0.000916 2.765611 3.452393
v -0.001343 2.765611 3.098938
v -0.001343 2.765611 1.223022
v -0.001831 2.765611 0.867096
v -0.000916 2.787891 0.842316
v -0.000854 3.034410 0.826660
v -0.001587 0.681607 3.463989
v -0.001221 0.429932 3.509888
v -0.002686 0.410376 3.486877
v -0.001526 0.471226 3.073914
v -0.001526 0.471680 3.050476
v -0.001526 0.487567 1.247009
v -0.001648 0.483963 1.211761
v -0.002930 0.445584 0.855499
v -0.001221 0.464202 0.830566
v -0.001221 0.681058 0.850159
v -0.002136 0.702334 0.874817
v -0.001587 0.702334 1.224030
v -0.001526 0.702334 1.247009
v -0.001526 0.702334 3.052307
v -0.001587 0.702334 3.074768
v -0.002441 0.702334 3.438293
vt 0.520752 0.847912
vt 0.520752 0.847912
vt 0.459505 0.847912
vt 0.459505 0.847912
vt 0.144470 0.847912
vt 0.144470 0.847912
vt 0.085003 0.847912
vt 0.085003 0.847912
vt 0.459505 0.809869
vt 0.459505 0.809869
vt 0.144470 0.809869
vt 0.146511 0.809869
vt 0.079579 0.847912
vt 0.079579 0.809869
vt 0.085003 0.809869
vt 0.085003 0.692853
vt 0.079579 0.697146
vt 0.079579 0.657817
vt 0.085003 0.657817
vt 0.085003 0.697146
vt 0.146511 0.692853
vt 0.146511 0.697146
vt 0.085003 0.734939
vt 0.079579 0.734939
vt 0.085003 0.734939
vt 0.146511 0.734939
vt 0.146511 0.734939
vt 0.085003 0.772749
vt 0.079579 0.772749
vt 0.459505 0.697146
vt 0.459505 0.692853
vt 0.520752 0.692853
vt 0.520752 0.697146
vt 0.526253 0.772749
vt 0.520752 0.772749
vt 0.520752 0.734939
vt 0.526253 0.734939
vt 0.520752 0.734939
vt 0.459505 0.734939
vt 0.459505 0.734939
vt 0.526253 0.697146
vt 0.520752 0.657817
vt 0.526253 0.657817
vt 0.520752 0.809869
vt 0.526253 0.809869
vt 0.526253 0.847912
vt 0.075476 0.012603
vt 0.118469 0.012674
vt 0.118405 0.048597
vt 0.075565 0.048587
vt 0.127459 0.011952
vt 0.164332 0.011928
vt 0.164259 0.047923
vt 0.127532 0.047911
vt 0.459505 0.772749
vt 0.085003 0.809869
vt 0.520752 0.809869
vt 0.146511 0.657817
vt 0.459505 0.657817
vt 0.146511 0.772749
vt 0.450246 0.469385
vt 0.450246 0.469385
vt 0.150687 0.469385
vt 0.150687 0.469385
vt 0.454132 0.469385
vt 0.454132 0.469385
vt 0.520298 0.469385
vt 0.520298 0.469385
vt 0.145261 0.469385
vt 0.145261 0.469385
vt 0.085957 0.469385
vt 0.085957 0.469385
vt 0.085957 0.509890
vt 0.145261 0.509890
vt 0.145261 0.509890
vt 0.085957 0.509890
vt 0.085957 0.652733
vt 0.080676 0.652733
vt 0.080676 0.617514
vt 0.085957 0.621266
vt 0.080676 0.469385
vt 0.080676 0.509890
vt 0.080676 0.542843
vt 0.085957 0.542843
vt 0.085957 0.577106
vt 0.080676 0.577106
vt 0.085957 0.577106
vt 0.145261 0.577106
vt 0.145261 0.577106
vt 0.085957 0.617514
vt 0.145261 0.617514
vt 0.145261 0.621266
vt 0.150687 0.621266
vt 0.150687 0.617514
vt 0.450246 0.617514
vt 0.450246 0.621266
vt 0.150687 0.577106
vt 0.150687 0.577106
vt 0.450246 0.577106
vt 0.450246 0.577106
vt 0.454132 0.577106
vt 0.454132 0.577106
vt 0.520298 0.577106
vt 0.520298 0.577106
vt 0.454132 0.621266
vt 0.454132 0.617514
vt 0.520298 0.617514
vt 0.520298 0.621266
vt 0.525525 0.577106
vt 0.520298 0.542843
vt 0.525525 0.542843
vt 0.525525 0.617514
vt 0.525525 0.652733
vt 0.520298 0.652733
vt 0.525525 0.509890
vt 0.520298 0.509890
vt 0.525525 0.469385
vt 0.126276 0.117407
vt 0.164058 0.117455
vt 0.164021 0.145499
vt 0.126299 0.145499
vt 0.071512 0.117120
vt 0.115535 0.117100
vt 0.115574 0.145406
vt 0.071549 0.145339
vt 0.145261 0.542843
vt 0.454132 0.509890
vt 0.520298 0.509890
vt 0.150687 0.509890
vt 0.450246 0.509890
vt 0.450246 0.509890
vt 0.454132 0.509890
vt 0.450246 0.652733
vt 0.150687 0.652733
vt 0.145261 0.652733
vt 0.454132 0.652733
vt 0.150687 0.509890
vt 0.454132 0.542843
vt 0.150687 0.542843
vt 0.450246 0.542843
vt 0.814964 0.801593
vt 0.809693 0.795788
vt 0.809693 0.734870
vt 0.814964 0.734870
vt 0.858233 0.795054
vt 0.852845 0.801593
vt 0.852845 0.734870
vt 0.858233 0.734870
vt 0.852845 0.513451
vt 0.858233 0.513451
vt 0.718814 0.795788
vt 0.713199 0.795788
vt 0.713199 0.734870
vt 0.718814 0.734870
vt 0.713199 0.513451
vt 0.718814 0.513451
vt 0.754681 0.416901
vt 0.760294 0.416901
vt 0.760294 0.513451
vt 0.754681 0.513451
vt 0.760294 0.734870
vt 0.754681 0.734870
vt 0.809693 0.513451
vt 0.814964 0.513451
vt 0.809693 0.416901
vt 0.814964 0.413772
vt 0.713199 0.416901
vt 0.718814 0.416901
vt 0.852845 0.413772
vt 0.858233 0.421628
vt 0.760294 0.795788
vt 0.754681 0.795788
vt 0.686526 0.734870
vt 0.686526 0.513451
vt 0.686526 0.795788
vt 0.686526 0.416901
vt 0.882602 0.734870
vt 0.882602 0.795054
vt 0.882602 0.513451
vt 0.882602 0.421628
vt 0.667716 0.238067
vt 0.667716 0.240744
vt 0.573531 0.240744
vt 0.570854 0.238067
vt 0.573531 0.326791
vt 0.570854 0.329467
vt 0.077244 0.213370
vt 0.077244 0.210697
vt 0.173978 0.210697
vt 0.171304 0.213370
vt 0.173978 0.301976
vt 0.171304 0.299303
vt 0.324609 0.221689
vt 0.324609 0.219013
vt 0.428228 0.219013
vt 0.430904 0.221689
vt 0.428228 0.138021
vt 0.430904 0.135344
vt 0.419897 0.191668
vt 0.419897 0.194341
vt 0.313743 0.194341
vt 0.316415 0.191668
vt 0.313743 0.108111
vt 0.316415 0.110784
vt 0.077244 0.194341
vt 0.077244 0.191668
vt 0.171304 0.191668
vt 0.173978 0.194341
vt 0.171304 0.110784
vt 0.173978 0.108111
vt 0.667716 0.219013
vt 0.667716 0.221689
vt 0.570854 0.221689
vt 0.573531 0.219013
vt 0.570854 0.135344
vt 0.573531 0.138021
vt 0.192247 0.210697
vt 0.194920 0.213370
vt 0.194920 0.299303
vt 0.192247 0.301976
vt 0.294702 0.210697
vt 0.292029 0.213370
vt 0.294702 0.301976
vt 0.292029 0.299303
vt 0.549884 0.240744
vt 0.552561 0.238067
vt 0.552561 0.329467
vt 0.549884 0.326791
vt 0.452646 0.240744
vt 0.449970 0.238067
vt 0.452646 0.326791
vt 0.449970 0.329467
vt 0.419897 0.210697
vt 0.419897 0.213370
vt 0.316415 0.213370
vt 0.313743 0.210697
vt 0.316415 0.299303
vt 0.313743 0.301976
vt 0.324609 0.240744
vt 0.324609 0.238067
vt 0.430904 0.238067
vt 0.428228 0.240744
vt 0.430904 0.329467
vt 0.428228 0.326791
vt 0.194920 0.191668
vt 0.192247 0.194341
vt 0.192247 0.108111
vt 0.194920 0.110784
vt 0.292029 0.191668
vt 0.294702 0.194341
vt 0.292029 0.110784
vt 0.294702 0.108111
vt 0.552561 0.220960
vt 0.549884 0.219013
vt 0.549884 0.138021
vt 0.552561 0.135344
vt 0.452646 0.138021
vt 0.449970 0.135344
vt 0.072445 0.110784
vt 0.072445 0.108111
vt 0.672522 0.135344
vt 0.672522 0.138021
vt 0.325217 0.138021
vt 0.325217 0.135344
vt 0.419289 0.108111
vt 0.419289 0.110784
vt 0.452646 0.219013
vt 0.449970 0.220960
vt 0.316415 0.090820
vt 0.313743 0.093493
vt 0.313743 0.006240
vt 0.316415 0.006240
vt 0.419289 0.090820
vt 0.419289 0.093493
vt 0.430904 0.120707
vt 0.428228 0.118030
vt 0.428228 0.033338
vt 0.430904 0.033338
vt 0.325217 0.120707
vt 0.325217 0.118030
vt 0.573531 0.118030
vt 0.570854 0.120707
vt 0.570854 0.033338
vt 0.573531 0.033338
vt 0.672522 0.118030
vt 0.672522 0.120707
vt 0.173978 0.093493
vt 0.171304 0.090820
vt 0.171304 0.006240
vt 0.173978 0.006240
vt 0.072445 0.093493
vt 0.072445 0.090820
vt 0.194920 0.090820
vt 0.192247 0.093493
vt 0.192247 0.006240
vt 0.194920 0.006240
vt 0.292029 0.090820
vt 0.294702 0.093493
vt 0.292029 0.006240
vt 0.294702 0.006240
vt 0.552561 0.120707
vt 0.549884 0.118030
vt 0.549884 0.033338
vt 0.552561 0.033338
vt 0.449970 0.120707
vt 0.452646 0.118030
vt 0.449970 0.033338
vt 0.452646 0.033338
vt 0.676946 0.326791
vt 0.676946 0.329467
vt 0.068026 0.301976
vt 0.068026 0.299303
vt 0.419728 0.299303
vt 0.419728 0.301976
vt 0.324778 0.329467
vt 0.324778 0.326791
vt 0.573531 0.429341
vt 0.570854 0.429341
vt 0.570854 0.347868
vt 0.573531 0.350545
vt 0.676946 0.347868
vt 0.676946 0.350545
vt 0.552561 0.429341
vt 0.549884 0.429341
vt 0.549884 0.350545
vt 0.552561 0.347868
vt 0.452646 0.350545
vt 0.449970 0.347868
vt 0.194920 0.401718
vt 0.192247 0.401718
vt 0.192247 0.320353
vt 0.194920 0.323026
vt 0.294702 0.320353
vt 0.292029 0.323026
vt 0.173978 0.401718
vt 0.171304 0.401718
vt 0.171304 0.323026
vt 0.173978 0.320353
vt 0.068026 0.323026
vt 0.068026 0.320353
vt 0.452646 0.429341
vt 0.449970 0.429341
vt 0.430904 0.429341
vt 0.428228 0.429341
vt 0.428228 0.350545
vt 0.430904 0.347868
vt 0.324778 0.350545
vt 0.324778 0.347868
vt 0.316415 0.401718
vt 0.313743 0.401718
vt 0.313743 0.320353
vt 0.316415 0.323026
vt 0.419728 0.320353
vt 0.419728 0.323026
vt 0.294702 0.401718
vt 0.292029 0.401718
vt 0.054678 0.658208
vt 0.054667 0.568168
vt 0.066610 0.568167
vt 0.066621 0.658206
vt 0.038364 0.177799
vt 0.050307 0.177794
vt 0.050345 0.267833
vt 0.038402 0.267838
vt 0.053240 0.387283
vt 0.053239 0.288227
vt 0.065181 0.288226
vt 0.065183 0.387283
vt 0.053123 0.185654
vt 0.065066 0.185659
vt 0.065028 0.284716
vt 0.053085 0.284711
vt 0.021800 0.544079
vt 0.033743 0.544086
vt 0.033690 0.637043
vt 0.021747 0.637036
vt 0.003645 0.538290
vt 0.004184 0.460863
vt 0.015549 0.460857
vt 0.015588 0.538284
vt 0.038332 0.100373
vt 0.050275 0.100368
vt 0.065185 0.464709
vt 0.053242 0.464709
vt 0.015675 0.708669
vt 0.004310 0.708674
vt 0.003692 0.631248
vt 0.015635 0.631242
vt 0.065187 0.563184
vt 0.053244 0.563184
vt 0.034112 0.283621
vt 0.022169 0.283619
vt 0.022187 0.185143
vt 0.034130 0.185146
vt 0.038292 0.005741
vt 0.050235 0.005735
vt 0.005363 0.269046
vt 0.017306 0.269044
vt 0.017326 0.363676
vt 0.005383 0.363678
vt 0.049904 0.445736
vt 0.037961 0.445733
vt 0.037984 0.352776
vt 0.049927 0.352779
vt 0.049884 0.526700
vt 0.037941 0.526697
vt 0.005346 0.188083
vt 0.017289 0.188080
vt 0.034097 0.364584
vt 0.022154 0.364582
vt 0.038004 0.271812
vt 0.049947 0.271815
vt 0.066631 0.740466
vt 0.054688 0.740467
vt 0.021847 0.461820
vt 0.033790 0.461827
vt 0.049745 0.606017
vt 0.037802 0.606019
vt 0.037786 0.530692
vt 0.049729 0.530689
vt 0.004740 0.105494
vt 0.016683 0.105497
vt 0.016661 0.180825
vt 0.004718 0.180821
vt 0.033644 0.719302
vt 0.021701 0.719295
vt 0.053154 0.103395
vt 0.065097 0.103399
vt 0.033025 0.080996
vt 0.021082 0.080993
vt 0.021099 0.005666
vt 0.033042 0.005668
vt 0.037821 0.698976
vt 0.049764 0.698974
vt 0.049780 0.774301
vt 0.037837 0.774303
vt 0.021900 0.368863
vt 0.033842 0.368870
vt 0.053192 0.004500
vt 0.065135 0.004504
vt 0.033002 0.179891
vt 0.021059 0.179888
vt 0.066642 0.839328
vt 0.054699 0.839330
vt 0.004768 0.006631
vt 0.016711 0.006635
vt 0.004137 0.367905
vt 0.015501 0.367899
vt 0.709397 0.009069
vt 0.714725 0.003073
vt 0.714725 0.059295
vt 0.709397 0.059295
vt 0.714725 0.348392
vt 0.709397 0.348392
vt 0.854044 0.009467
vt 0.859831 0.009467
vt 0.859831 0.059295
vt 0.854044 0.059295
vt 0.859831 0.348392
vt 0.854044 0.348392
vt 0.816552 0.402333
vt 0.810962 0.402333
vt 0.810962 0.348392
vt 0.816552 0.348392
vt 0.810962 0.059295
vt 0.816552 0.059295
vt 0.754322 0.003073
vt 0.759957 0.009467
vt 0.759957 0.059295
vt 0.754322 0.059295
vt 0.759957 0.348392
vt 0.754322 0.348392
vt 0.859831 0.402333
vt 0.854044 0.402333
vt 0.714725 0.407015
vt 0.709397 0.398986
vt 0.759957 0.402333
vt 0.754322 0.407015
vt 0.810962 0.009467
vt 0.816552 0.009467
vt 0.887442 0.348392
vt 0.887442 0.402333
vt 0.887442 0.059295
vt 0.887442 0.009467
vt 0.684282 0.059295
vt 0.684282 0.009069
vt 0.684282 0.348392
vt 0.684282 0.398986
vt 0.144470 0.885537
vt 0.085003 0.885537
vt 0.459505 0.885537
vt 0.520752 0.885537
vt 0.526253 0.885537
vt 0.164188 0.083473
vt 0.127604 0.083426
vt 0.118341 0.084076
vt 0.075654 0.084128
vt 0.079579 0.885537
vt 0.115626 0.183721
vt 0.071600 0.183534
vt 0.520298 0.435301
vt 0.525525 0.435301
vt 0.454132 0.435301
vt 0.450246 0.435301
vt 0.150687 0.435301
vt 0.145261 0.435301
vt 0.085957 0.435301
vt 0.080676 0.435301
vt 0.163972 0.183458
vt 0.126330 0.183524
vn -0.990274 0.125759 0.059511
vn -0.087221 0.992347 -0.087411
vn -0.099749 0.995002 -0.004526
vn -0.993329 0.115312 -0.000200
vn -0.991684 0.128630 0.004203
vn -0.086499 0.995480 0.039212
vn -0.092946 0.993368 0.067688
vn -0.992936 0.101036 -0.062200
vn -0.112247 -0.993680 0.000000
vn -0.995656 -0.093108 0.000000
vn -0.997768 -0.066783 0.000000
vn -0.111097 -0.993810 0.000010
vn -0.992936 0.101036 -0.062200
vn -0.087770 0.031788 -0.995634
vn -0.096438 -0.142614 -0.985069
vn -0.993989 -0.092018 -0.059320
vn 0.080800 0.994621 0.064810
vn 0.091655 0.026893 -0.995428
vn -0.000031 0.037285 -0.999305
vn -0.000478 0.997925 0.064383
vn 0.992421 0.107372 -0.059768
vn 0.080800 0.994621 0.064810
vn 0.094687 0.994757 0.038637
vn 0.993798 0.111114 0.004460
vn 0.091655 0.026893 -0.995428
vn 0.992421 0.107372 -0.059768
vn 0.994163 -0.089104 -0.060836
vn 0.095115 -0.142359 -0.985235
vn 0.090026 -0.994357 -0.056121
vn 0.994163 -0.089104 -0.060836
vn 0.993850 -0.110735 0.000004
vn 0.099454 -0.995042 0.000004
vn 0.095115 -0.142359 -0.985235
vn 0.090026 -0.994357 -0.056121
vn 0.000006 -0.998289 -0.058472
vn 0.000012 -0.148744 -0.988876
vn 0.994063 0.108806 -0.000674
vn 0.096460 0.995332 -0.003261
vn 0.080071 0.993144 -0.085163
vn 0.989461 0.133745 0.055485
vn -0.000138 -0.183636 0.982994
vn -0.000087 -0.998284 0.058560
vn 0.091537 -0.994288 0.054888
vn 0.092219 -0.176789 0.979919
vn 0.992936 -0.102474 0.059804
vn 0.091537 -0.994288 0.054888
vn 0.096942 -0.995290 -0.000028
vn 0.993272 -0.115807 -0.000032
vn 0.092219 -0.176789 0.979919
vn 0.992936 -0.102474 0.059804
vn 0.989461 0.133745 0.055485
vn 0.088736 0.012288 0.995979
vn 0.088736 0.012288 0.995979
vn 0.080071 0.993144 -0.085163
vn 0.001917 0.996447 -0.084198
vn -0.000006 0.024162 0.999708
vn -0.992296 -0.107944 0.060796
vn -0.096144 -0.176943 0.979514
vn -0.087814 0.020321 0.995930
vn -0.990274 0.125759 0.059511
vn 0.091655 0.026893 -0.995428
vn 0.095115 -0.142359 -0.985235
vn 0.000012 -0.148744 -0.988876
vn -0.000031 0.037285 -0.999305
vn 0.993798 0.111114 0.004460
vn 0.993850 -0.110735 0.000004
vn 0.994163 -0.089104 -0.060836
vn 0.992421 0.107372 -0.059768
vn 0.992936 -0.102474 0.059804
vn 0.993272 -0.115807 -0.000032
vn 0.994063 0.108806 -0.000674
vn 0.989461 0.133745 0.055485
vn 0.092219 -0.176789 0.979919
vn 0.088736 0.012288 0.995979
vn -0.000006 0.024162 0.999708
vn -0.000138 -0.183636 0.982994
vn -0.990274 0.125759 0.059511
vn -0.993329 0.115312 -0.000200
vn -0.995656 -0.093108 0.000000
vn -0.992296 -0.107944 0.060796
vn -0.993329 0.115312 -0.000200
vn -0.991684 0.128630 0.004203
vn -0.997768 -0.066783 0.000000
vn -0.995656 -0.093108 0.000000
vn -0.991684 0.128630 0.004203
vn -0.992936 0.101036 -0.062200
vn -0.993989 -0.092018 -0.059320
vn -0.997768 -0.066783 0.000000
vn -0.000087 -0.998284 0.058560
vn 0.000000 -1.000000 0.000000
vn 0.096942 -0.995290 -0.000028
vn 0.091537 -0.994288 0.054888
vn -0.992936 0.101036 -0.062200
vn -0.092946 0.993368 0.067688
vn -0.087770 0.031788 -0.995634
vn 0.992421 0.107372 -0.059768
vn 0.091655 0.026893 -0.995428
vn 0.080800 0.994621 0.064810
vn 0.090026 -0.994357 -0.056121
vn 0.095115 -0.142359 -0.985235
vn 0.994163 -0.089104 -0.060836
vn -0.096438 -0.142614 -0.985069
vn -0.093390 -0.994207 -0.053206
vn -0.993989 -0.092018 -0.059320
vn 0.091537 -0.994288 0.054888
vn 0.992936 -0.102474 0.059804
vn 0.092219 -0.176789 0.979919
vn 0.088736 0.012288 0.995979
vn 0.989461 0.133745 0.055485
vn 0.080071 0.993144 -0.085163
vn -0.992296 -0.107944 0.060796
vn -0.093788 -0.994122 0.054086
vn -0.096144 -0.176943 0.979514
vn -0.087814 0.020321 0.995930
vn -0.087221 0.992347 -0.087411
vn -0.990274 0.125759 0.059511
vn 0.080800 0.994621 0.064810
vn -0.000478 0.997925 0.064383
vn -0.001889 0.999247 0.038759
vn 0.094687 0.994757 0.038637
vn 0.080071 0.993144 -0.085163
vn 0.096460 0.995332 -0.003261
vn -0.001476 0.999992 -0.003829
vn 0.001917 0.996447 -0.084198
vn -0.993329 0.115312 -0.000200
vn -0.099749 0.995002 -0.004526
vn -0.086499 0.995480 0.039212
vn -0.991684 0.128630 0.004203
vn 0.096460 0.995332 -0.003261
vn 0.094687 0.994757 0.038637
vn -0.001889 0.999247 0.038759
vn -0.001476 0.999992 -0.003829
vn 0.993798 0.111114 0.004460
vn 0.094687 0.994757 0.038637
vn 0.096460 0.995332 -0.003261
vn 0.994063 0.108806 -0.000674
vn 0.993272 -0.115807 -0.000032
vn 0.993850 -0.110735 0.000004
vn 0.993798 0.111114 0.004460
vn 0.994063 0.108806 -0.000674
vn 0.099454 -0.995042 0.000004
vn 0.993850 -0.110735 0.000004
vn 0.993272 -0.115807 -0.000032
vn 0.096942 -0.995290 -0.000028
vn -0.995656 -0.093108 0.000000
vn -0.112247 -0.993680 0.000000
vn -0.093788 -0.994122 0.054086
vn -0.992296 -0.107944 0.060796
vn -0.093390 -0.994207 -0.053206
vn -0.111097 -0.993810 0.000010
vn -0.697946 -0.716150 0.000658
vn -0.993989 -0.092018 -0.059320
vn 0.000000 -1.000000 0.000000
vn 0.000006 -0.998289 -0.058472
vn 0.090026 -0.994357 -0.056121
vn 0.099454 -0.995042 0.000004
vn 0.000000 -1.000000 0.000000
vn 0.000000 -1.000000 0.000000
vn 0.099454 -0.995042 0.000004
vn 0.096942 -0.995290 -0.000028
vn -0.106355 -0.994289 -0.008891
vn -0.993532 -0.113549 -0.001016
vn -0.993490 -0.113921 -0.000786
vn -0.105858 -0.994358 -0.006729
vn -0.995728 -0.091385 -0.013186
vn -0.104816 -0.984496 -0.140649
vn -0.088461 -0.991379 -0.096657
vn -0.991834 -0.114366 0.056442
vn -0.109902 -0.988048 0.108087
vn -0.995478 -0.094421 0.010397
vn -0.991754 -0.113002 -0.060447
vn -0.095125 -0.993943 0.055033
vn -0.993294 0.100174 -0.057724
vn -0.993863 0.110618 0.000138
vn -0.103370 0.994643 0.000131
vn -0.101982 0.993387 -0.052743
vn 0.002675 -0.998661 0.051654
vn 0.000437 -0.022197 -0.999753
vn 0.094822 -0.011866 -0.995423
vn 0.085973 -0.994899 0.052768
vn -0.094304 -0.014581 -0.995437
vn -0.991754 -0.113002 -0.060447
vn -0.993294 0.100174 -0.057724
vn -0.103438 0.174846 -0.979147
vn 0.000019 0.182527 -0.983201
vn 0.000013 0.998377 -0.056944
vn 0.096213 0.993898 -0.053951
vn 0.099049 0.174237 -0.979710
vn 0.993356 0.099738 -0.057422
vn 0.096213 0.993898 -0.053951
vn 0.094947 0.995482 0.000024
vn 0.993728 0.111820 0.000026
vn 0.099049 0.174237 -0.979710
vn 0.993356 0.099738 -0.057422
vn 0.991233 -0.118666 -0.058100
vn 0.094822 -0.011866 -0.995423
vn 0.085973 -0.994899 0.052768
vn 0.991233 -0.118666 -0.058100
vn 0.994525 -0.103899 0.011200
vn 0.094836 -0.989951 0.104897
vn 0.101838 -0.994779 -0.006599
vn 0.993595 -0.113000 -0.000747
vn 0.993477 -0.114028 -0.001020
vn 0.101922 -0.994753 -0.008895
vn 0.993334 0.115272 0.000000
vn 0.099301 0.995058 0.000000
vn 0.098715 0.995116 0.000000
vn 0.993337 0.115245 0.000000
vn 0.995569 0.094033 -0.000091
vn 0.097998 0.995187 -0.000101
vn 0.098205 0.993895 0.050290
vn 0.995007 0.086190 0.050331
vn 0.097111 -0.985805 -0.136959
vn 0.995393 -0.094958 -0.013290
vn 0.991382 -0.118210 0.056454
vn 0.084861 -0.991862 -0.094910
vn 0.101103 0.246543 0.963844
vn 0.098205 0.993895 0.050290
vn 0.000076 0.998580 0.053283
vn 0.000106 0.254031 0.967196
vn 0.995007 0.086190 0.050331
vn 0.101103 0.246543 0.963844
vn 0.089819 0.092861 0.991620
vn 0.991382 -0.118210 0.056454
vn 0.084861 -0.991862 -0.094910
vn 0.089819 0.092861 0.991620
vn 0.000340 0.084460 0.996427
vn 0.004253 -0.995553 -0.094106
vn -0.106560 0.247067 0.963121
vn -0.995125 0.084291 0.051197
vn -0.991834 -0.114366 0.056442
vn -0.093575 0.089102 0.991617
vn 0.099049 0.174237 -0.979710
vn 0.094822 -0.011866 -0.995423
vn 0.000437 -0.022197 -0.999753
vn 0.000019 0.182527 -0.983201
vn 0.993595 -0.113000 -0.000747
vn 0.994525 -0.103899 0.011200
vn 0.993728 0.111820 0.000026
vn 0.993334 0.115272 0.000000
vn 0.993334 0.115272 0.000000
vn 0.993337 0.115245 0.000000
vn 0.993477 -0.114028 -0.001020
vn 0.993595 -0.113000 -0.000747
vn 0.995007 0.086190 0.050331
vn 0.991382 -0.118210 0.056454
vn 0.995393 -0.094958 -0.013290
vn 0.995569 0.094033 -0.000091
vn 0.089819 0.092861 0.991620
vn 0.101103 0.246543 0.963844
vn 0.000106 0.254031 0.967196
vn 0.000340 0.084460 0.996427
vn 0.000013 0.998377 -0.056944
vn 0.000000 1.000000 0.000000
vn 0.094947 0.995482 0.000024
vn 0.096213 0.993898 -0.053951
vn -0.993294 0.100174 -0.057724
vn -0.991754 -0.113002 -0.060447
vn -0.995478 -0.094421 0.010397
vn -0.993863 0.110618 0.000138
vn -0.995125 0.084291 0.051197
vn -0.995990 0.089463 -0.000207
vn -0.995728 -0.091385 -0.013186
vn -0.991834 -0.114366 0.056442
vn -0.095125 -0.993943 0.055033
vn -0.991754 -0.113002 -0.060447
vn -0.094304 -0.014581 -0.995437
vn -0.103438 0.174846 -0.979147
vn -0.993294 0.100174 -0.057724
vn -0.101982 0.993387 -0.052743
vn 0.993356 0.099738 -0.057422
vn 0.099049 0.174237 -0.979710
vn 0.096213 0.993898 -0.053951
vn 0.085973 -0.994899 0.052768
vn 0.094822 -0.011866 -0.995423
vn 0.991233 -0.118666 -0.058100
vn 0.101103 0.246543 0.963844
vn 0.995007 0.086190 0.050331
vn 0.098205 0.993895 0.050290
vn 0.084861 -0.991862 -0.094910
vn 0.991382 -0.118210 0.056454
vn 0.089819 0.092861 0.991620
vn -0.103467 0.993425 0.048997
vn -0.995125 0.084291 0.051197
vn -0.106560 0.247067 0.963121
vn -0.093575 0.089102 0.991617
vn -0.991834 -0.114366 0.056442
vn -0.088461 -0.991379 -0.096657
vn -0.993234 0.116129 0.000000
vn -0.993490 -0.113921 -0.000786
vn -0.993532 -0.113549 -0.001016
vn -0.992651 0.121014 -0.000003
vn -0.099685 0.995019 -0.000003
vn -0.992651 0.121014 -0.000003
vn -0.995990 0.089463 -0.000207
vn -0.103932 0.994584 -0.000241
vn 0.993728 0.111820 0.000026
vn 0.094947 0.995482 0.000024
vn 0.099301 0.995058 0.000000
vn 0.993334 0.115272 0.000000
vn 0.993728 0.111820 0.000026
vn 0.994525 -0.103899 0.011200
vn 0.991233 -0.118666 -0.058100
vn 0.993356 0.099738 -0.057422
vn 0.094836 -0.989951 0.104897
vn 0.994525 -0.103899 0.011200
vn 0.993595 -0.113000 -0.000747
vn 0.101838 -0.994779 -0.006599
vn -0.105858 -0.994358 -0.006729
vn -0.993490 -0.113921 -0.000786
vn -0.995478 -0.094421 0.010397
vn -0.109902 -0.988048 0.108087
vn -0.993863 0.110618 0.000138
vn -0.995478 -0.094421 0.010397
vn -0.993490 -0.113921 -0.000786
vn -0.993234 0.116129 0.000000
vn 0.101838 -0.994779 -0.006599
vn 0.101922 -0.994753 -0.008895
vn 0.000000 -0.999960 -0.008942
vn -0.000017 -0.999978 -0.006688
vn 0.094836 -0.989951 0.104897
vn 0.101838 -0.994779 -0.006599
vn -0.000017 -0.999978 -0.006688
vn 0.002242 -0.994278 0.106805
vn 0.085973 -0.994899 0.052768
vn 0.094836 -0.989951 0.104897
vn 0.002242 -0.994278 0.106805
vn 0.002675 -0.998661 0.051654
vn 0.097111 -0.985805 -0.136959
vn 0.084861 -0.991862 -0.094910
vn 0.004253 -0.995553 -0.094106
vn 0.004009 -0.990240 -0.139314
vn 0.993337 0.115245 0.000000
vn 0.098715 0.995116 0.000000
vn 0.097998 0.995187 -0.000101
vn 0.995569 0.094033 -0.000091
vn 0.993477 -0.114028 -0.001020
vn 0.993337 0.115245 0.000000
vn 0.995569 0.094033 -0.000091
vn 0.995393 -0.094958 -0.013290
vn 0.101922 -0.994753 -0.008895
vn 0.993477 -0.114028 -0.001020
vn 0.995393 -0.094958 -0.013290
vn 0.097111 -0.985805 -0.136959
vn 0.101922 -0.994753 -0.008895
vn 0.097111 -0.985805 -0.136959
vn 0.004009 -0.990240 -0.139314
vn 0.000000 -0.999960 -0.008942
vn -0.104816 -0.984496 -0.140649
vn -0.995728 -0.091385 -0.013186
vn -0.993532 -0.113549 -0.001016
vn -0.106355 -0.994289 -0.008891
vn -0.992651 0.121014 -0.000003
vn -0.993532 -0.113549 -0.001016
vn -0.995728 -0.091385 -0.013186
vn -0.995990 0.089463 -0.000207
vn -0.099685 0.995019 -0.000003
vn -0.102704 0.994712 0.000000
vn -0.993234 0.116129 0.000000
vn -0.992651 0.121014 -0.000003
vn -0.993863 0.110618 0.000138
vn -0.993234 0.116129 0.000000
vn -0.102704 0.994712 0.000000
vn -0.103370 0.994643 0.000131
vn 0.098205 0.993895 0.050290
vn 0.097998 0.995187 -0.000101
vn 0.000000 1.000000 0.000000
vn 0.000076 0.998580 0.053283
vn 0.000000 1.000000 0.000000
vn 0.000000 1.000000 0.000000
vn 0.099301 0.995058 0.000000
vn 0.094947 0.995482 0.000024
vn -0.103932 0.994584 -0.000241
vn -0.995990 0.089463 -0.000207
vn -0.995125 0.084291 0.051197
vn -0.103467 0.993425 0.048997
vn 0.000000 1.000000 0.000000
vn 0.000000 1.000000 0.000000
vn 0.098715 0.995116 0.000000
vn 0.099301 0.995058 0.000000
vn 0.000000 1.000000 0.000000
vn 0.000000 1.000000 0.000000
vn 0.097998 0.995187 -0.000101
vn 0.098715 0.995116 0.000000
vn -0.996854 -0.016334 -0.077561
vn -0.096041 -0.205083 -0.974021
vn -0.076203 -0.029172 -0.996665
vn -0.994723 -0.003106 -0.102549
vn -0.186519 0.000002 0.982451
vn -0.998004 -0.000002 0.063155
vn -0.993889 -0.000001 0.110382
vn -0.139672 0.000000 0.990198
vn -0.139672 0.000000 0.990198
vn -0.993889 -0.000001 0.110382
vn -0.994351 0.000000 0.106146
vn -0.139585 0.000000 0.990210
vn 0.994633 0.000023 0.103464
vn 0.128866 0.000027 0.991662
vn 0.128749 0.000005 0.991677
vn 0.993765 0.000005 0.111491
vn 0.993765 0.000005 0.111491
vn 0.128749 0.000005 0.991677
vn 0.128705 0.000000 0.991683
vn 0.994245 0.000000 0.107128
vn 0.994390 0.013120 -0.104963
vn 0.068352 0.123747 -0.989957
vn 0.073681 0.051839 -0.995934
vn 0.994599 0.005389 -0.103651
vn 0.994599 0.005389 -0.103651
vn 0.073681 0.051839 -0.995934
vn 0.075707 -0.029077 -0.996706
vn 0.994600 -0.003009 -0.103739
vn -0.994723 -0.003106 -0.102549
vn -0.076203 -0.029172 -0.996665
vn -0.074109 0.051871 -0.995900
vn -0.994709 0.005380 -0.102588
vn -0.096755 0.123456 -0.987622
vn -0.997823 0.008179 -0.065434
vn -0.994709 0.005380 -0.102588
vn -0.074109 0.051871 -0.995900
vn 0.128708 0.000001 0.991683
vn 0.995615 -0.000001 0.093548
vn 0.994245 0.000000 0.107128
vn 0.128705 0.000000 0.991683
vn -0.998330 0.000000 0.057768
vn -0.184884 0.000001 0.982760
vn -0.139585 0.000000 0.990210
vn -0.994351 0.000000 0.106146
vn 0.065745 -0.205589 -0.976428
vn 0.991830 -0.026282 -0.124831
vn 0.994600 -0.003009 -0.103739
vn 0.075707 -0.029077 -0.996706
vn 0.128749 0.000005 0.991677
vn 0.000000 0.000000 1.000000
vn 0.000000 0.000000 1.000000
vn 0.128705 0.000000 0.991683
vn -0.993889 -0.000001 0.110382
vn -0.994723 -0.003106 -0.102549
vn -0.994709 0.005380 -0.102588
vn -0.994351 0.000000 0.106146
vn 0.994600 -0.003009 -0.103739
vn 0.993765 0.000005 0.111491
vn 0.994245 0.000000 0.107128
vn 0.994599 0.005389 -0.103651
vn -0.076203 -0.029172 -0.996665
vn 0.075707 -0.029077 -0.996706
vn 0.073681 0.051839 -0.995934
vn -0.074109 0.051871 -0.995900
vn -0.998004 -0.000002 0.063155
vn -0.996854 -0.016334 -0.077561
vn -0.994723 -0.003106 -0.102549
vn -0.993889 -0.000001 0.110382
vn 0.065745 -0.205589 -0.976428
vn 0.075707 -0.029077 -0.996706
vn -0.076203 -0.029172 -0.996665
vn -0.096041 -0.205083 -0.974021
vn 0.994633 0.000023 0.103464
vn 0.993765 0.000005 0.111491
vn 0.994600 -0.003009 -0.103739
vn 0.991830 -0.026282 -0.124831
vn 0.128866 0.000027 0.991662
vn 0.000000 0.000002 1.000000
vn 0.000000 0.000000 1.000000
vn 0.128749 0.000005 0.991677
vn -0.074109 0.051871 -0.995900
vn 0.073681 0.051839 -0.995934
vn 0.068352 0.123747 -0.989957
vn -0.096755 0.123456 -0.987622
vn -0.994351 0.000000 0.106146
vn -0.994709 0.005380 -0.102588
vn -0.997823 0.008179 -0.065434
vn -0.998330 0.000000 0.057768
vn 0.128705 0.000000 0.991683
vn 0.000000 0.000000 1.000000
vn 0.000000 0.000002 1.000000
vn 0.128708 0.000001 0.991683
vn 0.994599 0.005389 -0.103651
vn 0.994245 0.000000 0.107128
vn 0.995615 -0.000001 0.093548
vn 0.994390 0.013120 -0.104963
vn 0.000000 0.000000 1.000000
vn 0.000000 0.000002 1.000000
vn -0.186519 0.000002 0.982451
vn -0.139672 0.000000 0.990198
vn 0.000000 0.000000 1.000000
vn 0.000000 0.000000 1.000000
vn -0.139672 0.000000 0.990198
vn -0.139585 0.000000 0.990210
vn 0.000000 0.000002 1.000000
vn 0.000000 0.000000 1.000000
vn -0.139585 0.000000 0.990210
vn -0.184884 0.000001 0.982760
vn -0.989709 0.143092 0.000000
vn -0.168909 0.985632 0.000000
vn -0.307157 0.714267 0.628870
vn -0.998427 0.041842 0.037313
vn -0.998427 0.041842 0.037313
vn -0.307157 0.714267 0.628870
vn -0.305560 -0.742769 0.595758
vn -0.998570 -0.041481 0.033731
vn 0.168912 0.985631 0.000000
vn 0.989709 0.143095 0.000000
vn 0.998422 0.041915 0.037377
vn 0.307159 0.714268 0.628868
vn 0.307159 0.714268 0.628868
vn 0.998422 0.041915 0.037377
vn 0.998570 -0.041476 0.033731
vn 0.305563 -0.742762 0.595765
vn -0.989688 -0.143241 0.000000
vn -0.168722 -0.985664 0.000000
vn -0.304402 -0.760635 -0.573389
vn -0.998414 -0.044711 -0.034214
vn -0.998414 -0.044711 -0.034214
vn -0.304402 -0.760635 -0.573389
vn -0.304549 0.758979 -0.575501
vn -0.998252 0.046841 -0.036049
vn 0.168720 -0.985664 0.000000
vn 0.989686 -0.143255 0.000000
vn 0.998439 -0.044358 -0.033941
vn 0.304399 -0.760642 -0.573381
vn 0.304399 -0.760642 -0.573381
vn 0.998439 -0.044358 -0.033941
vn 0.998258 0.046750 -0.035983
vn 0.304552 0.758972 -0.575509
vn 0.989709 -0.143096 0.000000
vn 0.168898 -0.985634 0.000000
vn 0.306454 -0.732794 0.607535
vn 0.998418 -0.043038 0.036194
vn 0.998418 -0.043038 0.036194
vn 0.306454 -0.732794 0.607535
vn 0.305484 0.747554 0.589782
vn 0.998208 0.046712 0.037403
vn -0.168895 -0.985634 0.000000
vn -0.989709 -0.143094 0.000000
vn -0.998390 -0.043407 0.036505
vn -0.306452 -0.732793 0.607538
vn -0.306452 -0.732793 0.607538
vn -0.998390 -0.043407 0.036505
vn -0.998201 0.046797 0.037471
vn -0.305484 0.747554 0.589782
vn 0.998423 0.042724 -0.036423
vn 0.308152 0.724786 -0.616220
vn 0.308151 -0.724787 -0.616220
vn 0.998600 -0.040245 -0.034311
vn 0.308152 0.724786 -0.616220
vn 0.998423 0.042724 -0.036423
vn 0.998487 0.041847 0.035677
vn 0.308145 0.724788 0.616221
vn 0.308145 0.724788 0.616221
vn 0.998487 0.041847 0.035677
vn 0.998655 -0.039452 0.033635
vn 0.308143 -0.724789 0.616221
vn -0.308146 0.724794 -0.616214
vn -0.998485 0.041868 -0.035692
vn -0.998600 -0.040248 -0.034311
vn -0.308144 -0.724795 -0.616214
vn -0.998485 0.041868 -0.035692
vn -0.308146 0.724794 -0.616214
vn -0.308139 0.724796 0.616215
vn -0.998546 0.041022 0.034971
vn -0.998546 0.041022 0.034971
vn -0.308139 0.724796 0.616215
vn -0.308138 -0.724796 0.616216
vn -0.998655 -0.039455 0.033635
vn 0.989686 0.143253 0.000000
vn 0.168735 0.985661 0.000000
vn 0.305472 0.743356 -0.595070
vn 0.998449 0.043230 -0.035074
vn 0.998449 0.043230 -0.035074
vn 0.305472 0.743356 -0.595070
vn 0.305508 -0.742869 -0.595660
vn 0.998625 -0.040687 -0.033069
vn -0.168737 0.985661 0.000000
vn -0.989688 0.143239 0.000000
vn -0.998455 0.043153 -0.035015
vn -0.305475 0.743349 -0.595078
vn -0.305475 0.743349 -0.595078
vn -0.998455 0.043153 -0.035015
vn -0.998625 -0.040687 -0.033069
vn -0.305508 -0.742869 -0.595660
vn 0.315845 -0.735115 -0.599873
vn 0.998417 -0.043838 -0.035247
vn 0.998229 0.046359 -0.037272
vn 0.309365 0.747715 -0.587551
vn 0.998417 -0.043838 -0.035247
vn 0.315845 -0.735115 -0.599873
vn 0.315847 -0.735116 0.599871
vn 0.998480 -0.042958 0.034539
vn 0.998480 -0.042958 0.034539
vn 0.315847 -0.735116 0.599871
vn 0.309367 0.747715 0.587549
vn 0.998302 0.045391 0.036494
vn -0.997582 -0.052542 -0.045494
vn -0.251929 -0.763364 -0.594817
vn -0.306552 0.742127 -0.596047
vn -0.998058 0.046588 -0.041357
vn -0.998058 0.046588 -0.041357
vn -0.306552 0.742127 -0.596047
vn -0.306553 0.742126 0.596048
vn -0.998138 0.045617 0.040498
vn 0.309365 0.747715 -0.587551
vn 0.998229 0.046359 -0.037272
vn 0.998302 0.045391 0.036494
vn 0.309367 0.747715 0.587549
vn 0.998208 0.046712 0.037403
vn 0.305484 0.747554 0.589782
vn 0.168812 0.985648 0.000000
vn 0.987559 0.157248 0.000000
vn -0.305484 0.747554 0.589782
vn -0.998201 0.046797 0.037471
vn -0.987559 0.157248 0.000000
vn -0.168812 0.985648 0.000000
vn -0.998252 0.046841 -0.036049
vn -0.304549 0.758979 -0.575501
vn -0.168741 0.985660 0.000000
vn -0.987545 0.157334 0.000000
vn 0.304552 0.758972 -0.575509
vn 0.998258 0.046750 -0.035983
vn 0.987548 0.157319 0.000000
vn 0.168743 0.985660 0.000000
vn -0.251930 -0.763363 0.594818
vn -0.997676 -0.051512 0.044602
vn -0.998138 0.045617 0.040498
vn -0.306553 0.742126 0.596048
vn 0.303788 -0.747668 -0.590512
vn 0.998243 -0.046463 -0.036771
vn 0.992706 0.000000 -0.120563
vn 0.175930 0.000000 -0.984403
vn 0.998243 -0.046463 -0.036771
vn 0.303788 -0.747668 -0.590512
vn 0.168743 -0.985660 0.000000
vn 0.987548 -0.157319 0.000000
vn -0.998243 -0.046467 -0.036771
vn -0.303784 -0.747675 -0.590505
vn -0.175930 0.000000 -0.984403
vn -0.992706 0.000000 -0.120563
vn -0.303784 -0.747675 -0.590505
vn -0.998243 -0.046467 -0.036771
vn -0.987545 -0.157334 0.000000
vn -0.168741 -0.985660 0.000000
vn -0.304576 -0.735895 0.604725
vn -0.998191 -0.046422 0.038221
vn -0.992165 0.000000 0.124938
vn -0.175974 0.000000 0.984395
vn -0.998191 -0.046422 0.038221
vn -0.304576 -0.735895 0.604725
vn -0.168812 -0.985648 0.000000
vn -0.987559 -0.157248 0.000000
vn 0.998191 -0.046422 0.038221
vn 0.304576 -0.735895 0.604725
vn 0.175974 0.000000 0.984395
vn 0.992165 0.000000 0.124938
vn 0.304576 -0.735895 0.604725
vn 0.998191 -0.046422 0.038221
vn 0.987559 -0.157248 0.000000
vn 0.168812 -0.985648 0.000000
vn 0.306371 -0.731076 -0.609643
vn 0.998212 -0.046072 -0.038087
vn 0.992165 0.000000 -0.124938
vn 0.175974 0.000000 -0.984395
vn 0.998212 -0.046072 -0.038087
vn 0.306371 -0.731076 -0.609643
vn 0.306375 -0.731075 0.609642
vn 0.998286 -0.045108 0.037290
vn 0.998286 -0.045108 0.037290
vn 0.306375 -0.731075 0.609642
vn 0.175979 0.000000 0.984394
vn 0.992706 0.000000 0.120559
vn -0.998212 -0.046076 -0.038088
vn -0.306365 -0.731083 -0.609637
vn -0.175974 0.000000 -0.984395
vn -0.992165 0.000000 -0.124938
vn -0.306365 -0.731083 -0.609637
vn -0.998212 -0.046076 -0.038088
vn -0.998286 -0.045111 0.037290
vn -0.306369 -0.731082 0.609637
vn -0.306369 -0.731082 0.609637
vn -0.998286 -0.045111 0.037290
vn -0.992706 0.000000 0.120559
vn -0.175979 0.000000 0.984394
vn -0.998570 -0.041481 0.033731
vn -0.305560 -0.742769 0.595758
vn -0.168739 -0.985661 0.000000
vn -0.991551 -0.129716 0.000000
vn 0.305563 -0.742762 0.595765
vn 0.998570 -0.041476 0.033731
vn 0.991553 -0.129704 0.000000
vn 0.168742 -0.985660 0.000000
vn 0.998600 -0.040245 -0.034311
vn 0.308151 -0.724787 -0.616220
vn 0.308143 -0.724789 0.616221
vn 0.998655 -0.039452 0.033635
vn -0.308144 -0.724795 -0.616214
vn -0.998600 -0.040248 -0.034311
vn -0.998655 -0.039455 0.033635
vn -0.308138 -0.724796 0.616216
vn 0.998625 -0.040687 -0.033069
vn 0.305508 -0.742869 -0.595660
vn 0.168739 -0.985661 0.000000
vn 0.991552 -0.129712 0.000000
vn -0.305508 -0.742869 -0.595660
vn -0.998625 -0.040687 -0.033069
vn -0.991552 -0.129712 0.000000
vn -0.168739 -0.985661 0.000000
vn -0.176145 0.000000 0.984364
vn -0.992180 0.000000 0.124817
vn -0.998545 0.043468 0.031923
vn -0.302356 0.769104 0.563080
vn -0.302356 0.769104 0.563080
vn -0.998545 0.043468 0.031923
vn -0.991551 0.129715 0.000000
vn -0.168750 0.985659 0.000000
vn -0.992180 0.000000 -0.124818
vn -0.176140 0.000000 -0.984365
vn -0.305281 0.752302 -0.583820
vn -0.998580 0.042213 -0.032500
vn -0.998580 0.042213 -0.032500
vn -0.305281 0.752302 -0.583820
vn -0.305284 0.752302 0.583818
vn -0.998633 0.041418 0.031888
vn 0.176140 0.000000 -0.984365
vn 0.992180 0.000000 -0.124818
vn 0.998580 0.042210 -0.032500
vn 0.305288 0.752295 -0.583825
vn 0.305288 0.752295 -0.583825
vn 0.998580 0.042210 -0.032500
vn 0.998633 0.041415 0.031888
vn 0.305290 0.752295 0.583823
vn 0.992180 0.000000 0.124817
vn 0.176145 0.000000 0.984364
vn 0.302360 0.769098 0.563087
vn 0.998545 0.043464 0.031923
vn 0.998545 0.043464 0.031923
vn 0.302360 0.769098 0.563087
vn 0.168753 0.985658 0.000000
vn 0.991553 0.129703 0.000000
vn -0.176144 0.000000 0.984364
vn -0.992721 0.000000 0.120440
vn -0.998633 0.041418 0.031888
vn -0.305284 0.752302 0.583818
vn -0.992720 0.000000 -0.120446
vn -0.176092 0.000000 -0.984374
vn -0.302309 0.769196 -0.562980
vn -0.998598 0.042676 -0.031325
vn -0.998598 0.042676 -0.031325
vn -0.302309 0.769196 -0.562980
vn -0.168751 0.985659 0.000000
vn -0.991552 0.129711 0.000000
vn 0.176092 0.000000 -0.984374
vn 0.992720 0.000000 -0.120446
vn 0.998598 0.042676 -0.031325
vn 0.302309 0.769196 -0.562980
vn 0.302309 0.769196 -0.562980
vn 0.998598 0.042676 -0.031325
vn 0.991552 0.129711 0.000000
vn 0.168751 0.985659 0.000000
vn 0.992721 0.000000 0.120440
vn 0.176144 0.000000 0.984364
vn 0.305290 0.752295 0.583823
vn 0.998633 0.041415 0.031888
vn 0.998422 0.041915 0.037377
vn 0.998418 -0.043038 0.036194
vn 0.998417 -0.043838 -0.035247
vn 0.998423 0.042724 -0.036423
vn -0.307157 0.714267 0.628870
vn -0.168909 0.985632 0.000000
vn 0.168912 0.985631 0.000000
vn 0.307159 0.714268 0.628868
vn 0.989709 -0.143096 0.000000
vn 0.998418 -0.043038 0.036194
vn 0.998422 0.041915 0.037377
vn 0.989709 0.143095 0.000000
vn -0.306452 -0.732793 0.607538
vn 0.306454 -0.732794 0.607535
vn 0.168898 -0.985634 0.000000
vn -0.168895 -0.985634 0.000000
vn -0.998427 0.041842 0.037313
vn -0.998390 -0.043407 0.036505
vn -0.989709 -0.143094 0.000000
vn -0.989709 0.143092 0.000000
vn 0.998487 0.041847 0.035677
vn 0.998480 -0.042958 0.034539
vn 0.998439 -0.044358 -0.033941
vn 0.998449 0.043230 -0.035074
vn -0.304402 -0.760635 -0.573389
vn -0.168722 -0.985664 0.000000
vn 0.168720 -0.985664 0.000000
vn 0.304399 -0.760642 -0.573381
vn 0.998449 0.043230 -0.035074
vn 0.998439 -0.044358 -0.033941
vn 0.989686 -0.143255 0.000000
vn 0.989686 0.143253 0.000000
vn -0.305475 0.743349 -0.595078
vn 0.305472 0.743356 -0.595070
vn 0.168735 0.985661 0.000000
vn -0.168737 0.985661 0.000000
vn -0.989688 -0.143241 0.000000
vn -0.998414 -0.044711 -0.034214
vn -0.998455 0.043153 -0.035015
vn -0.989688 0.143239 0.000000
vn 0.998423 0.042724 -0.036423
vn 0.998417 -0.043838 -0.035247
vn 0.998480 -0.042958 0.034539
vn 0.998487 0.041847 0.035677
vn -0.998485 0.041868 -0.035692
vn -0.997582 -0.052542 -0.045494
vn -0.998390 -0.043407 0.036505
vn -0.998427 0.041842 0.037313
vn -0.308146 0.724794 -0.616214
vn 0.308152 0.724786 -0.616220
vn 0.308145 0.724788 0.616221
vn -0.308139 0.724796 0.616215
vn -0.306552 0.742127 -0.596047
vn -0.251929 -0.763364 -0.594817
vn 0.315845 -0.735115 -0.599873
vn 0.309365 0.747715 -0.587551
vn 0.998417 -0.043838 -0.035247
vn 0.998418 -0.043038 0.036194
vn 0.998208 0.046712 0.037403
vn 0.998229 0.046359 -0.037272
vn 0.306454 -0.732794 0.607535
vn -0.306452 -0.732793 0.607538
vn -0.305484 0.747554 0.589782
vn 0.305484 0.747554 0.589782
vn -0.998390 -0.043407 0.036505
vn -0.997582 -0.052542 -0.045494
vn -0.998058 0.046588 -0.041357
vn -0.998201 0.046797 0.037471
vn -0.304402 -0.760635 -0.573389
vn 0.304399 -0.760642 -0.573381
vn 0.304552 0.758972 -0.575509
vn -0.304549 0.758979 -0.575501
vn 0.998439 -0.044358 -0.033941
vn 0.998480 -0.042958 0.034539
vn 0.998302 0.045391 0.036494
vn 0.998258 0.046750 -0.035983
vn 0.315847 -0.735116 0.599871
vn -0.251930 -0.763363 0.594818
vn -0.306553 0.742126 0.596048
vn 0.309367 0.747715 0.587549
vn -0.998138 0.045617 0.040498
vn -0.997676 -0.051512 0.044602
vn -0.998414 -0.044711 -0.034214
vn -0.998252 0.046841 -0.036049
vn 0.998229 0.046359 -0.037272
vn 0.998208 0.046712 0.037403
vn 0.998191 -0.046422 0.038221
vn 0.998212 -0.046072 -0.038087
vn -0.998201 0.046797 0.037471
vn -0.998058 0.046588 -0.041357
vn -0.998212 -0.046076 -0.038088
vn -0.998191 -0.046422 0.038221
vn 0.998258 0.046750 -0.035983
vn 0.998302 0.045391 0.036494
vn 0.998286 -0.045108 0.037290
vn 0.998243 -0.046463 -0.036771
vn -0.998138 0.045617 0.040498
vn -0.998252 0.046841 -0.036049
vn -0.998243 -0.046467 -0.036771
vn -0.998286 -0.045111 0.037290
vn -0.304549 0.758979 -0.575501
vn 0.304552 0.758972 -0.575509
vn 0.168743 0.985660 0.000000
vn -0.168741 0.985660 0.000000
vn 0.998258 0.046750 -0.035983
vn 0.998243 -0.046463 -0.036771
vn 0.987548 -0.157319 0.000000
vn 0.987548 0.157319 0.000000
vn 0.303788 -0.747668 -0.590512
vn -0.303784 -0.747675 -0.590505
vn -0.168741 -0.985660 0.000000
vn 0.168743 -0.985660 0.000000
vn -0.998243 -0.046467 -0.036771
vn -0.998252 0.046841 -0.036049
vn -0.987545 0.157334 0.000000
vn -0.987545 -0.157334 0.000000
vn 0.305484 0.747554 0.589782
vn -0.305484 0.747554 0.589782
vn -0.168812 0.985648 0.000000
vn 0.168812 0.985648 0.000000
vn -0.998201 0.046797 0.037471
vn -0.998191 -0.046422 0.038221
vn -0.987559 -0.157248 0.000000
vn -0.987559 0.157248 0.000000
vn -0.304576 -0.735895 0.604725
vn 0.304576 -0.735895 0.604725
vn 0.168812 -0.985648 0.000000
vn -0.168812 -0.985648 0.000000
vn 0.998191 -0.046422 0.038221
vn 0.998208 0.046712 0.037403
vn 0.987559 0.157248 0.000000
vn 0.987559 -0.157248 0.000000
vn 0.998229 0.046359 -0.037272
vn 0.998212 -0.046072 -0.038087
vn 0.998286 -0.045108 0.037290
vn 0.998302 0.045391 0.036494
vn 0.306371 -0.731076 -0.609643
vn -0.306365 -0.731083 -0.609637
vn -0.306369 -0.731082 0.609637
vn 0.306375 -0.731075 0.609642
vn -0.998212 -0.046076 -0.038088
vn -0.998058 0.046588 -0.041357
vn -0.998138 0.045617 0.040498
vn -0.998286 -0.045111 0.037290
vn -0.306552 0.742127 -0.596047
vn 0.309365 0.747715 -0.587551
vn 0.309367 0.747715 0.587549
vn -0.306553 0.742126 0.596048
vn -0.306365 -0.731083 -0.609637
vn 0.306371 -0.731076 -0.609643
vn 0.175974 0.000000 -0.984395
vn -0.175974 0.000000 -0.984395
vn 0.998212 -0.046072 -0.038087
vn 0.998191 -0.046422 0.038221
vn 0.992165 0.000000 0.124938
vn 0.992165 0.000000 -0.124938
vn 0.304576 -0.735895 0.604725
vn -0.304576 -0.735895 0.604725
vn -0.175974 0.000000 0.984395
vn 0.175974 0.000000 0.984395
vn -0.998191 -0.046422 0.038221
vn -0.998212 -0.046076 -0.038088
vn -0.992165 0.000000 -0.124938
vn -0.992165 0.000000 0.124938
vn -0.303784 -0.747675 -0.590505
vn 0.303788 -0.747668 -0.590512
vn 0.175930 0.000000 -0.984403
vn -0.175930 0.000000 -0.984403
vn 0.998243 -0.046463 -0.036771
vn 0.998286 -0.045108 0.037290
vn 0.992706 0.000000 0.120559
vn 0.992706 0.000000 -0.120563
vn 0.306375 -0.731075 0.609642
vn -0.306369 -0.731082 0.609637
vn -0.175979 0.000000 0.984394
vn 0.175979 0.000000 0.984394
vn -0.998286 -0.045111 0.037290
vn -0.998243 -0.046467 -0.036771
vn -0.992706 0.000000 -0.120563
vn -0.992706 0.000000 0.120559
vn 0.998570 -0.041476 0.033731
vn 0.998600 -0.040245 -0.034311
vn 0.998580 0.042210 -0.032500
vn 0.998545 0.043464 0.031923
vn -0.998600 -0.040248 -0.034311
vn -0.998570 -0.041481 0.033731
vn -0.998545 0.043468 0.031923
vn -0.998580 0.042213 -0.032500
vn 0.998655 -0.039452 0.033635
vn 0.998625 -0.040687 -0.033069
vn 0.998598 0.042676 -0.031325
vn 0.998633 0.041415 0.031888
vn -0.998625 -0.040687 -0.033069
vn -0.998655 -0.039455 0.033635
vn -0.998633 0.041418 0.031888
vn -0.998598 0.042676 -0.031325
vn -0.307157 0.714267 0.628870
vn 0.307159 0.714268 0.628868
vn 0.305563 -0.742762 0.595765
vn -0.305560 -0.742769 0.595758
vn 0.998422 0.041915 0.037377
vn 0.998423 0.042724 -0.036423
vn 0.998600 -0.040245 -0.034311
vn 0.998570 -0.041476 0.033731
vn 0.308152 0.724786 -0.616220
vn -0.308146 0.724794 -0.616214
vn -0.308144 -0.724795 -0.616214
vn 0.308151 -0.724787 -0.616220
vn -0.998485 0.041868 -0.035692
vn -0.998427 0.041842 0.037313
vn -0.998570 -0.041481 0.033731
vn -0.998600 -0.040248 -0.034311
vn -0.998580 0.042213 -0.032500
vn -0.998545 0.043468 0.031923
vn -0.992180 0.000000 0.124817
vn -0.992180 0.000000 -0.124818
vn 0.305288 0.752295 -0.583825
vn -0.305281 0.752302 -0.583820
vn -0.176140 0.000000 -0.984365
vn 0.176140 0.000000 -0.984365
vn 0.998545 0.043464 0.031923
vn 0.998580 0.042210 -0.032500
vn 0.992180 0.000000 -0.124818
vn 0.992180 0.000000 0.124817
vn -0.302356 0.769104 0.563080
vn 0.302360 0.769098 0.563087
vn 0.176145 0.000000 0.984364
vn -0.176145 0.000000 0.984364
vn -0.308139 0.724796 0.616215
vn 0.308145 0.724788 0.616221
vn 0.308143 -0.724789 0.616221
vn -0.308138 -0.724796 0.616216
vn 0.998487 0.041847 0.035677
vn 0.998449 0.043230 -0.035074
vn 0.998625 -0.040687 -0.033069
vn 0.998655 -0.039452 0.033635
vn 0.305472 0.743356 -0.595070
vn -0.305475 0.743349 -0.595078
vn -0.305508 -0.742869 -0.595660
vn 0.305508 -0.742869 -0.595660
vn -0.998455 0.043153 -0.035015
vn -0.998546 0.041022 0.034971
vn -0.998655 -0.039455 0.033635
vn -0.998625 -0.040687 -0.033069
vn -0.998598 0.042676 -0.031325
vn -0.998633 0.041418 0.031888
vn -0.992721 0.000000 0.120440
vn -0.992720 0.000000 -0.120446
vn 0.302309 0.769196 -0.562980
vn -0.302309 0.769196 -0.562980
vn -0.176092 0.000000 -0.984374
vn 0.176092 0.000000 -0.984374
vn 0.998633 0.041415 0.031888
vn 0.998598 0.042676 -0.031325
vn 0.992720 0.000000 -0.120446
vn 0.992721 0.000000 0.120440
vn -0.305284 0.752302 0.583818
vn 0.305290 0.752295 0.583823
vn 0.176144 0.000000 0.984364
vn -0.176144 0.000000 0.984364
vn 0.998580 0.042210 -0.032500
vn 0.998600 -0.040245 -0.034311
vn 0.998655 -0.039452 0.033635
vn 0.998633 0.041415 0.031888
vn 0.308151 -0.724787 -0.616220
vn -0.308144 -0.724795 -0.616214
vn -0.308138 -0.724796 0.616216
vn 0.308143 -0.724789 0.616221
vn -0.998600 -0.040248 -0.034311
vn -0.998580 0.042213 -0.032500
vn -0.998633 0.041418 0.031888
vn -0.998655 -0.039455 0.033635
vn -0.305281 0.752302 -0.583820
vn 0.305288 0.752295 -0.583825
vn 0.305290 0.752295 0.583823
vn -0.305284 0.752302 0.583818
vn 0.305508 -0.742869 -0.595660
vn -0.305508 -0.742869 -0.595660
vn -0.168739 -0.985661 0.000000
vn 0.168739 -0.985661 0.000000
vn -0.998625 -0.040687 -0.033069
vn -0.998598 0.042676 -0.031325
vn -0.991552 0.129711 0.000000
vn -0.991552 -0.129712 0.000000
vn -0.302309 0.769196 -0.562980
vn 0.302309 0.769196 -0.562980
vn 0.168751 0.985659 0.000000
vn -0.168751 0.985659 0.000000
vn 0.998598 0.042676 -0.031325
vn 0.998625 -0.040687 -0.033069
vn 0.991552 -0.129712 0.000000
vn 0.991552 0.129711 0.000000
vn -0.305560 -0.742769 0.595758
vn 0.305563 -0.742762 0.595765
vn 0.168742 -0.985660 0.000000
vn -0.168739 -0.985661 0.000000
vn 0.998570 -0.041476 0.033731
vn 0.998545 0.043464 0.031923
vn 0.991553 0.129703 0.000000
vn 0.991553 -0.129704 0.000000
vn 0.302360 0.769098 0.563087
vn -0.302356 0.769104 0.563080
vn -0.168750 0.985659 0.000000
vn 0.168753 0.985658 0.000000
vn -0.998545 0.043468 0.031923
vn -0.998570 -0.041481 0.033731
vn -0.991551 -0.129716 0.000000
vn -0.991551 0.129715 0.000000
vn -0.251929 -0.763364 -0.594817
vn -0.251930 -0.763363 0.594818
vn 0.315847 -0.735116 0.599871
vn 0.315845 -0.735115 -0.599873
vn -0.997582 -0.052542 -0.045494
vn -0.997676 -0.051512 0.044602
vn -0.251930 -0.763363 0.594818
vn -0.251929 -0.763364 -0.594817
vn -0.997676 -0.051512 0.044602
vn -0.998546 0.041022 0.034971
vn -0.998455 0.043153 -0.035015
vn -0.998414 -0.044711 -0.034214
vn -0.998485 0.041868 -0.035692
vn -0.998546 0.041022 0.034971
vn -0.997676 -0.051512 0.044602
vn -0.997582 -0.052542 -0.045494
vn -0.185479 0.067384 -0.980335
vn -0.998064 0.004265 -0.062047
vn -0.994267 0.001120 -0.106920
vn -0.141400 0.010078 -0.989901
vn -0.141400 0.010078 -0.989901
vn -0.994267 0.001120 -0.106920
vn -0.994460 -0.002056 -0.105096
vn -0.142794 -0.018884 -0.989572
vn 0.994762 0.007020 -0.101978
vn 0.125226 0.068042 -0.989792
vn 0.130419 0.010046 -0.991408
vn 0.994159 0.001093 -0.107918
vn 0.994159 0.001093 -0.107918
vn 0.130419 0.010046 -0.991408
vn 0.131846 -0.018804 -0.991092
vn 0.994329 -0.002013 -0.106326
vn 0.992842 -0.024573 0.116877
vn 0.065711 -0.205259 0.976499
vn 0.075519 -0.021200 0.996919
vn 0.994676 -0.002179 0.103034
vn 0.994676 -0.002179 0.103034
vn 0.075519 -0.021200 0.996919
vn 0.073991 0.032099 0.996742
vn 0.994244 0.003443 0.107084
vn -0.997744 0.009281 0.066495
vn -0.098077 0.137574 0.985624
vn -0.074409 0.032146 0.996710
vn -0.994359 0.003476 0.106008
vn -0.994359 0.003476 0.106008
vn -0.074409 0.032146 0.996710
vn -0.075945 -0.021284 0.996885
vn -0.994798 -0.002268 0.101846
vn 0.123077 -0.119899 -0.985128
vn 0.994025 -0.013122 -0.108364
vn 0.994329 -0.002013 -0.106326
vn 0.131846 -0.018804 -0.991092
vn -0.997807 -0.008000 -0.065704
vn -0.183361 -0.118860 -0.975833
vn -0.142794 -0.018884 -0.989572
vn -0.994460 -0.002056 -0.105096
vn -0.096505 -0.204742 0.974047
vn -0.997323 -0.015039 0.071562
vn -0.994798 -0.002268 0.101846
vn -0.075945 -0.021284 0.996885
vn 0.994244 0.003443 0.107084
vn 0.073991 0.032099 0.996742
vn 0.067826 0.137923 0.988118
vn 0.993954 0.015183 0.108738
vn -0.997323 -0.015039 0.071562
vn -0.997807 -0.008000 -0.065704
vn -0.994460 -0.002056 -0.105096
vn -0.994798 -0.002268 0.101846
vn 0.075519 -0.021200 0.996919
vn 0.065711 -0.205259 0.976499
vn -0.096505 -0.204742 0.974047
vn -0.075945 -0.021284 0.996885
vn 0.123077 -0.119899 -0.985128
vn 0.131846 -0.018804 -0.991092
vn 0.000001 -0.018991 -0.999820
vn 0.000000 -0.120910 -0.992663
vn 0.992842 -0.024573 0.116877
vn 0.994676 -0.002179 0.103034
vn 0.994329 -0.002013 -0.106326
vn 0.994025 -0.013122 -0.108364
vn -0.994798 -0.002268 0.101846
vn -0.994460 -0.002056 -0.105096
vn -0.994267 0.001120 -0.106920
vn -0.994359 0.003476 0.106008
vn 0.075519 -0.021200 0.996919
vn -0.075945 -0.021284 0.996885
vn -0.074409 0.032146 0.996710
vn 0.073991 0.032099 0.996742
vn 0.994329 -0.002013 -0.106326
vn 0.994676 -0.002179 0.103034
vn 0.994244 0.003443 0.107084
vn 0.994159 0.001093 -0.107918
vn 0.000001 0.010133 -0.999949
vn 0.000001 -0.018991 -0.999820
vn 0.131846 -0.018804 -0.991092
vn 0.130419 0.010046 -0.991408
vn -0.994359 0.003476 0.106008
vn -0.994267 0.001120 -0.106920
vn -0.998064 0.004265 -0.062047
vn -0.997744 0.009281 0.066495
vn 0.073991 0.032099 0.996742
vn -0.074409 0.032146 0.996710
vn -0.098077 0.137574 0.985624
vn 0.067826 0.137923 0.988118
vn 0.994159 0.001093 -0.107918
vn 0.994244 0.003443 0.107084
vn 0.993954 0.015183 0.108738
vn 0.994762 0.007020 -0.101978
vn 0.000000 0.068573 -0.997646
vn 0.000001 0.010133 -0.999949
vn 0.130419 0.010046 -0.991408
vn 0.125226 0.068042 -0.989792
vn -0.141400 0.010078 -0.989901
vn 0.000001 0.010133 -0.999949
vn 0.000000 0.068573 -0.997646
vn -0.185479 0.067384 -0.980335
vn -0.142794 -0.018884 -0.989572
vn 0.000001 -0.018991 -0.999820
vn 0.000001 0.010133 -0.999949
vn -0.141400 0.010078 -0.989901
vn 0.000000 -0.120910 -0.992663
vn 0.000001 -0.018991 -0.999820
vn -0.142794 -0.018884 -0.989572
vn -0.183361 -0.118860 -0.975833
vn -0.001889 0.999247 0.038759
vn -0.000478 0.997925 0.064383
vn -0.092946 0.993368 0.067688
vn -0.086499 0.995480 0.039212
vn -0.001476 0.999992 -0.003829
vn -0.001889 0.999247 0.038759
vn -0.086499 0.995480 0.039212
vn -0.099749 0.995002 -0.004526
vn 0.001917 0.996447 -0.084198
vn -0.001476 0.999992 -0.003829
vn -0.099749 0.995002 -0.004526
vn -0.087221 0.992347 -0.087411
vn -0.000006 0.024162 0.999708
vn 0.001917 0.996447 -0.084198
vn -0.087221 0.992347 -0.087411
vn -0.087814 0.020321 0.995930
vn -0.000138 -0.183636 0.982994
vn -0.000006 0.024162 0.999708
vn -0.087814 0.020321 0.995930
vn -0.096144 -0.176943 0.979514
vn -0.093788 -0.994122 0.054086
vn -0.000087 -0.998284 0.058560
vn -0.000138 -0.183636 0.982994
vn -0.096144 -0.176943 0.979514
vn -0.112247 -0.993680 0.000000
vn 0.000000 -1.000000 0.000000
vn -0.000087 -0.998284 0.058560
vn -0.093788 -0.994122 0.054086
vn -0.111097 -0.993810 0.000010
vn 0.000000 -1.000000 0.000000
vn 0.000000 -1.000000 0.000000
vn -0.112247 -0.993680 0.000000
vn -0.111097 -0.993810 0.000010
vn -0.093390 -0.994207 -0.053206
vn 0.000006 -0.998289 -0.058472
vn 0.000000 -1.000000 0.000000
vn 0.000012 -0.148744 -0.988876
vn 0.000006 -0.998289 -0.058472
vn -0.093390 -0.994207 -0.053206
vn -0.096438 -0.142614 -0.985069
vn -0.000031 0.037285 -0.999305
vn 0.000012 -0.148744 -0.988876
vn -0.096438 -0.142614 -0.985069
vn -0.087770 0.031788 -0.995634
vn -0.000478 0.997925 0.064383
vn -0.000031 0.037285 -0.999305
vn -0.087770 0.031788 -0.995634
vn -0.092946 0.993368 0.067688
vn 0.000340 0.084460 0.996427
vn 0.000106 0.254031 0.967196
vn -0.106560 0.247067 0.963121
vn -0.093575 0.089102 0.991617
vn 0.004253 -0.995553 -0.094106
vn 0.000340 0.084460 0.996427
vn -0.093575 0.089102 0.991617
vn -0.088461 -0.991379 -0.096657
vn 0.004009 -0.990240 -0.139314
vn 0.004253 -0.995553 -0.094106
vn -0.088461 -0.991379 -0.096657
vn -0.104816 -0.984496 -0.140649
vn 0.000000 -0.999960 -0.008942
vn 0.004009 -0.990240 -0.139314
vn -0.104816 -0.984496 -0.140649
vn -0.106355 -0.994289 -0.008891
vn -0.000017 -0.999978 -0.006688
vn 0.000000 -0.999960 -0.008942
vn -0.106355 -0.994289 -0.008891
vn -0.105858 -0.994358 -0.006729
vn 0.002242 -0.994278 0.106805
vn -0.000017 -0.999978 -0.006688
vn -0.105858 -0.994358 -0.006729
vn -0.109902 -0.988048 0.108087
vn 0.002675 -0.998661 0.051654
vn 0.002242 -0.994278 0.106805
vn -0.109902 -0.988048 0.108087
vn -0.095125 -0.993943 0.055033
vn -0.094304 -0.014581 -0.995437
vn 0.000437 -0.022197 -0.999753
vn 0.002675 -0.998661 0.051654
vn -0.095125 -0.993943 0.055033
vn 0.000019 0.182527 -0.983201
vn 0.000437 -0.022197 -0.999753
vn -0.094304 -0.014581 -0.995437
vn -0.103438 0.174846 -0.979147
vn -0.101982 0.993387 -0.052743
vn 0.000013 0.998377 -0.056944
vn 0.000019 0.182527 -0.983201
vn -0.103438 0.174846 -0.979147
vn -0.103370 0.994643 0.000131
vn 0.000000 1.000000 0.000000
vn 0.000013 0.998377 -0.056944
vn -0.101982 0.993387 -0.052743
vn -0.102704 0.994712 0.000000
vn 0.000000 1.000000 0.000000
vn 0.000000 1.000000 0.000000
vn -0.103370 0.994643 0.000131
vn -0.099685 0.995019 -0.000003
vn 0.000000 1.000000 0.000000
vn 0.000000 1.000000 0.000000
vn -0.102704 0.994712 0.000000
vn -0.103932 0.994584 -0.000241
vn 0.000000 1.000000 0.000000
vn 0.000000 1.000000 0.000000
vn -0.099685 0.995019 -0.000003
vn 0.000076 0.998580 0.053283
vn 0.000000 1.000000 0.000000
vn -0.103932 0.994584 -0.000241
vn -0.103467 0.993425 0.048997
vn 0.000106 0.254031 0.967196
vn 0.000076 0.998580 0.053283
vn -0.103467 0.993425 0.048997
vn -0.106560 0.247067 0.963121
s off
g wall_mid1:group2 window:group1
usemtl window:lambert1SG
f 42/17/33 41/18/34 49/19/35 50/20/36
f 51/21/37 52/22/38 20/23/39 19/24/40
f 17/25/41 18/26/42 44/27/43 43/28/44
f 19/24/45 21/29/46 28/30/47 30/31/48
f 24/32/49 23/33/50 372/34/51 361/35/52
f 22/36/53 24/32/54 53/37/55 54/38/56
f 23/33/57 22/36/58 27/39/59 26/40/60
f 25/41/61 27/39/62 55/42/63 56/43/64
f 26/40/65 25/41/66 370/44/67 371/45/68
f 47/46/69 48/47/70 36/48/71 35/49/72
f 366/50/73 367/51/74 31/52/75 33/53/76
f 32/54/77 31/52/78 45/55/79 46/56/80
f 33/53/81 32/54/82 35/49/83 34/57/84
f 34/57/85 36/48/86 364/58/87 365/59/88
f 37/60/89 39/61/90 40/62/91 42/17/92
f 23/63/93 26/64/94 371/65/95 372/66/96
f 54/38/97 55/42/98 27/39/99 22/36/100
f 32/54/101 46/56/102 47/46/103 35/49/104
f 33/67/105 34/68/106 365/69/107 366/70/108
f 42/17/109 50/20/110 18/26/111 37/60/112
f 50/20/113 51/21/114 44/27/115 18/26/116
f 51/21/117 19/24/118 30/31/119 44/27/120
f 367/51/121 368/71/122 45/55/123 31/52/124
f 19/24/125 20/23/126 21/29/127
f 22/36/128 23/33/129 24/32/130
f 25/41/131 26/40/132 27/39/133
f 28/30/134 29/72/135 30/31/136
f 31/52/137 32/54/138 33/53/139
f 34/57/140 35/49/141 36/48/142
f 37/60/143 38/73/144 39/61/145
f 40/62/146 41/18/147 42/17/148
f 24/32/149 361/35/150 362/74/151 53/37/152
f 36/48/153 48/47/154 363/75/155 364/58/156
f 50/20/157 49/19/158 52/22/159 51/21/160
f 48/47/161 53/37/162 362/74/163 363/75/164
f 54/38/165 53/37/166 48/47/167 47/46/168
f 46/56/169 55/42/170 54/38/171 47/46/172
f 56/43/173 55/42/174 46/56/175 45/55/176
f 18/26/177 17/25/178 38/73/179 37/60/180
f 29/72/181 43/28/182 44/27/183 30/31/184
f 369/76/185 370/44/186 25/41/187 56/43/188
f 368/71/189 369/76/190 56/43/191 45/55/192
f 108/77/193 109/78/194 60/79/195 59/80/196
f 58/81/197 57/82/198 96/83/199 95/84/200
f 102/85/201 103/86/202 66/87/203 65/88/204
f 69/89/205 62/90/206 111/91/207 70/92/208
f 380/93/209 381/94/210 75/95/211 74/96/212
f 67/97/213 66/87/214 69/89/215 68/98/216
f 382/99/217 383/100/218 73/101/219 72/102/220
f 71/103/221 73/101/222 98/104/223 99/105/224
f 72/102/225 71/103/226 76/106/227 75/95/228
f 74/96/229 76/106/230 100/107/231 101/108/232
f 77/109/233 78/110/234 106/111/235 107/112/236
f 79/113/237 80/114/238 104/115/239 105/116/240
f 81/117/241 82/118/242 87/119/243 86/120/244
f 83/121/245 84/122/246 89/123/247 88/124/248
f 85/125/249 87/119/250 388/126/251 373/127/252
f 86/120/253 85/125/254 90/128/255 89/123/256
f 88/124/257 90/128/258 374/129/259 375/130/260
f 93/131/261 92/132/262 95/84/263 94/133/264
f 72/134/265 75/135/266 381/136/267 382/137/268
f 78/110/269 100/107/270 99/105/271 79/113/272
f 79/113/273 105/116/274 106/111/275 78/110/276
f 86/120/277 89/123/278 84/122/279 81/117/280
f 90/138/281 85/139/282 373/140/283 374/141/284
f 383/100/285 384/142/286 98/104/287 73/101/288
f 69/89/289 66/87/290 103/86/291 62/90/292
f 92/132/293 64/143/294 58/81/295 95/84/296
f 65/88/297 66/87/298 67/97/299
f 68/98/300 69/89/301 70/92/302
f 71/103/303 72/102/304 73/101/305
f 74/96/306 75/95/307 76/106/308
f 85/125/309 86/120/310 87/119/311
f 88/124/312 89/123/313 90/128/314
f 91/144/315 92/132/316 93/131/317
f 94/133/318 95/84/319 96/83/320
f 97/145/321 60/79/322 109/78/323 110/146/324
f 63/147/325 110/146/326 64/143/327 112/148/328
f 99/105/329 98/104/330 80/114/331 79/113/332
f 99/105/333 100/107/334 76/106/335 71/103/336
f 101/108/337 100/107/338 78/110/339 77/109/340
f 59/80/341 60/79/342 103/86/343 102/85/344
f 62/90/345 103/86/346 60/79/347 97/145/348
f 77/109/349 107/112/350 377/149/351 378/150/352
f 101/108/353 77/109/354 378/150/355 379/151/356
f 74/96/357 101/108/358 379/151/359 380/93/360
f 83/121/361 88/124/362 375/130/363 376/152/364
f 105/116/365 104/115/366 82/118/367 81/117/368
f 106/111/369 105/116/370 81/117/371 84/122/372
f 107/112/373 106/111/374 84/122/375 83/121/376
f 107/112/377 83/121/378 376/152/379 377/149/380
f 57/82/381 58/81/382 109/78/383 108/77/384
f 110/146/385 109/78/386 58/81/387 64/143/388
f 63/147/389 61/153/390 97/145/391 110/146/392
f 62/90/393 97/145/394 61/153/395 111/91/396
f 87/119/397 82/118/398 387/154/399 388/126/400
f 384/142/401 385/155/402 80/114/403 98/104/404
f 112/148/405 64/143/406 92/132/407 91/144/408
f 385/155/409 386/156/410 104/115/411 80/114/412
f 386/156/413 387/154/414 82/118/415 104/115/416
f 131/157/417 132/158/418 120/159/419 119/160/420
f 133/161/421 134/162/422 113/163/423 114/164/424
f 114/164/425 113/163/426 121/165/427 122/166/428
f 135/167/429 136/168/430 116/169/431 115/170/432
f 115/170/433 116/169/434 127/171/435 128/172/436
f 137/173/437 138/174/438 117/175/439 118/176/440
f 118/176/441 117/175/442 125/177/443 126/178/444
f 119/160/445 120/159/446 123/179/447 124/180/448
f 139/181/449 140/182/450 124/180/451 123/179/452
f 141/183/453 142/184/454 128/172/455 127/171/456
f 143/185/457 144/186/458 122/166/459 121/165/460
f 145/187/461 146/188/462 126/178/463 125/177/464
f 116/169/465 129/189/466 130/190/467 127/171/468
f 113/163/469 119/160/470 124/180/471 121/165/472
f 126/178/473 115/170/474 128/172/475 118/176/476
f 120/159/477 125/177/478 117/175/479 123/179/480
f 134/162/481 131/157/482 119/160/483 113/163/484
f 145/187/485 125/177/486 120/159/487 132/158/488
f 135/167/489 115/170/490 126/178/491 146/188/492
f 136/168/493 147/191/494 129/189/495 116/169/496
f 123/179/497 117/175/498 138/174/499 139/181/500
f 121/165/501 124/180/502 140/182/503 143/185/504
f 127/171/505 130/190/506 148/192/507 141/183/508
f 118/176/509 128/172/510 142/184/511 137/173/512
f 129/193/513 147/194/514 133/161/515 114/164/516
f 130/195/517 129/193/518 114/164/519 122/166/520
f 148/196/521 130/195/522 122/166/523 144/186/524
f 149/197/525 150/198/526 152/199/527 151/200/528
f 151/200/529 152/199/530 262/201/531 261/202/532
f 153/203/533 154/204/534 156/205/535 155/206/536
f 155/206/537 156/205/538 264/207/539 263/208/540
f 157/209/541 158/210/542 160/211/543 159/212/544
f 159/212/545 160/211/546 204/213/547 203/214/548
f 161/215/549 162/216/550 164/217/551 163/218/552
f 163/218/553 164/217/554 206/219/555 205/220/556
f 165/221/557 166/222/558 168/223/559 167/224/560
f 167/224/561 168/223/562 200/225/563 199/226/564
f 169/227/565 170/228/566 172/229/567 171/230/568
f 171/230/569 172/229/570 202/231/571 201/232/572
f 173/233/573 174/234/574 266/235/575 265/236/576
f 174/234/577 173/233/578 176/237/579 175/238/580
f 175/238/581 176/237/582 272/239/583 271/240/584
f 177/241/585 178/242/586 268/243/587 267/244/588
f 178/242/589 177/241/590 180/245/591 179/246/592
f 179/246/593 180/245/594 270/247/595 269/248/596
f 181/249/597 182/250/598 184/251/599 183/252/600
f 183/252/601 184/251/602 274/253/603 273/254/604
f 185/255/605 186/256/606 188/257/607 187/258/608
f 187/258/609 188/257/610 276/259/611 275/260/612
f 189/261/613 190/262/614 198/263/615 197/264/616
f 190/262/617 189/261/618 192/265/619 191/266/620
f 191/266/621 192/265/622 208/267/623 207/268/624
f 193/269/625 194/270/626 196/271/627 195/272/628
f 195/272/629 196/271/630 211/273/631 212/274/632
f 197/264/633 198/263/634 207/268/635 208/267/636
f 199/226/637 200/225/638 226/275/639 225/276/640
f 201/232/641 202/231/642 227/277/643 228/278/644
f 203/214/645 204/213/646 214/279/647 213/280/648
f 205/220/649 206/219/650 215/281/651 216/282/652
f 209/283/653 210/284/654 212/274/655 211/273/656
f 217/285/657 218/286/658 255/287/659 256/288/660
f 218/286/661 217/285/662 219/289/663 220/290/664
f 221/291/665 222/292/666 254/293/667 253/294/668
f 222/292/669 221/291/670 223/295/671 224/296/672
f 229/297/673 230/298/674 251/299/675 252/300/676
f 230/298/677 229/297/678 231/301/679 232/302/680
f 233/303/681 234/304/682 249/305/683 250/306/684
f 234/304/685 233/303/686 235/307/687 236/308/688
f 237/309/689 238/310/690 247/311/691 248/312/692
f 238/310/693 237/309/694 240/313/695 239/314/696
f 239/314/697 240/313/698 257/315/699 258/316/700
f 241/317/701 242/318/702 246/319/703 245/320/704
f 242/318/705 241/317/706 244/321/707 243/322/708
f 243/322/709 244/321/710 259/323/711 260/324/712
f 261/202/713 262/201/714 318/325/715 317/326/716
f 263/208/717 264/207/718 319/327/719 320/328/720
f 265/236/721 266/235/722 271/240/723 272/239/724
f 267/244/725 268/243/726 269/248/727 270/247/728
f 273/254/729 274/253/730 310/329/731 309/330/732
f 275/260/733 276/259/734 311/331/735 312/332/736
f 277/333/737 278/334/738 280/335/739 279/336/740
f 279/336/741 280/335/742 323/337/743 324/338/744
f 281/339/745 282/340/746 284/341/747 283/342/748
f 283/342/749 284/341/750 295/343/751 296/344/752
f 285/345/753 286/346/754 288/347/755 287/348/756
f 287/348/757 288/347/758 307/349/759 308/350/760
f 289/351/761 290/352/762 292/353/763 291/354/764
f 291/354/765 292/353/766 321/355/767 322/356/768
f 293/357/769 294/358/770 296/344/771 295/343/772
f 297/359/773 298/360/774 300/361/775 299/362/776
f 299/362/777 300/361/778 313/363/779 314/364/780
f 301/365/781 302/366/782 304/367/783 303/368/784
f 303/368/785 304/367/786 315/369/787 316/370/788
f 305/371/789 306/372/790 308/350/791 307/349/792
f 156/205/793 167/224/794 190/262/795 173/233/796
f 152/373/797 150/374/798 153/375/799 155/376/800
f 165/221/801 167/224/802 156/205/803 154/204/804
f 171/377/805 168/378/806 166/379/807 169/380/808
f 151/200/809 172/229/810 170/228/811 149/197/812
f 176/237/813 191/266/814 164/217/815 183/252/816
f 160/381/817 158/382/818 161/383/819 163/384/820
f 183/252/821 164/217/822 162/216/823 181/249/824
f 187/385/825 184/386/826 182/387/827 185/388/828
f 157/209/829 159/212/830 188/257/831 186/256/832
f 173/233/833 190/262/834 191/266/835 176/237/836
f 178/242/837 193/269/838 172/229/839 151/200/840
f 177/389/841 174/390/842 175/391/843 180/392/844
f 196/393/845 194/394/846 189/395/847 197/396/848
f 190/262/849 167/224/850 199/226/851 198/263/852
f 168/378/853 171/377/854 201/397/855 200/398/856
f 172/229/857 193/269/858 195/272/859 202/231/860
f 160/381/861 163/384/862 205/399/863 204/400/864
f 164/217/865 191/266/866 207/268/867 206/219/868
f 192/401/869 209/402/870 211/403/871 208/404/872
f 212/274/873 210/284/874 159/212/875 203/214/876
f 198/263/877 199/226/878 233/303/879 238/310/880
f 202/231/881 195/272/882 241/317/883 230/298/884
f 206/219/885 207/268/886 239/314/887 218/286/888
f 212/274/889 203/214/890 221/291/891 244/321/892
f 204/400/893 205/399/894 216/405/895 214/406/896
f 206/219/897 218/286/898 220/290/899 215/281/900
f 217/407/901 222/408/902 224/409/903 219/410/904
f 221/291/905 203/214/906 213/280/907 223/295/908
f 200/398/909 201/397/910 228/411/911 226/412/912
f 202/231/913 230/298/914 232/302/915 227/277/916
f 229/413/917 234/414/918 236/415/919 231/416/920
f 233/303/921 199/226/922 225/276/923 235/307/924
f 198/263/925 238/310/926 239/314/927 207/268/928
f 237/417/929 242/418/930 243/419/931 240/420/932
f 241/317/933 195/272/934 212/274/935 244/321/936
f 196/393/937 197/396/938 208/404/939 211/403/940
f 242/418/941 237/417/942 248/421/943 246/422/944
f 238/310/945 233/303/946 250/306/947 247/311/948
f 234/414/949 229/413/950 252/423/951 249/424/952
f 230/298/953 241/317/954 245/320/955 251/299/956
f 222/408/957 217/407/958 256/425/959 254/426/960
f 218/286/961 239/314/962 258/316/963 255/287/964
f 240/420/965 243/419/966 260/427/967 257/428/968
f 244/321/969 221/291/970 253/294/971 259/323/972
f 264/207/973 265/236/974 288/347/975 291/354/976
f 268/243/977 261/202/978 280/335/979 283/342/980
f 272/239/981 273/254/982 304/367/983 307/349/984
f 276/259/985 269/248/986 296/344/987 299/362/988
f 152/373/989 155/376/990 263/429/991 262/430/992
f 156/205/993 173/233/994 265/236/995 264/207/996
f 174/390/997 177/389/998 267/431/999 266/432/1000
f 178/242/1001 151/200/1002 261/202/1003 268/243/1004
f 283/342/1005 280/335/1006 278/334/1007 281/339/1008
f 287/433/1009 284/434/1010 282/435/1011 285/436/1012
f 291/354/1013 288/347/1014 286/346/1015 289/351/1016
f 279/437/1017 292/438/1018 290/439/1019 277/440/1020
f 180/392/1021 175/391/1022 271/441/1023 270/442/1024
f 176/237/1025 183/252/1026 273/254/1027 272/239/1028
f 184/386/1029 187/385/1030 275/443/1031 274/444/1032
f 188/257/1033 179/246/1034 269/248/1035 276/259/1036
f 299/362/1037 296/344/1038 294/358/1039 297/359/1040
f 303/445/1041 300/446/1042 298/447/1043 301/448/1044
f 307/349/1045 304/367/1046 302/366/1047 305/371/1048
f 295/449/1049 308/450/1050 306/451/1051 293/452/1052
f 288/347/1053 265/236/1054 272/239/1055 307/349/1056
f 266/432/1057 267/431/1058 270/453/1059 271/454/1060
f 268/243/1061 283/342/1062 296/344/1063 269/248/1064
f 284/434/1065 287/433/1066 308/450/1067 295/449/1068
f 274/444/1069 275/443/1070 312/455/1071 310/456/1072
f 276/259/1073 299/362/1074 314/364/1075 311/331/1076
f 300/446/1077 303/445/1078 316/457/1079 313/458/1080
f 304/367/1081 273/254/1082 309/330/1083 315/369/1084
f 262/430/1085 263/429/1086 320/459/1087 318/460/1088
f 264/207/1089 291/354/1090 322/356/1091 319/327/1092
f 292/438/1093 279/437/1094 324/461/1095 321/462/1096
f 280/335/1097 261/202/1098 317/326/1099 323/337/1100
f 194/394/1101 209/463/1102 192/464/1103 189/395/1104
f 193/269/1105 210/284/1106 209/283/1107 194/270/1108
f 210/284/1109 179/246/1110 188/257/1111 159/212/1112
f 178/242/1113 179/246/1114 210/284/1115 193/269/1116
f 343/465/1117 344/466/1118 325/467/1119 326/468/1120
f 326/468/1121 325/467/1122 333/469/1123 334/470/1124
f 345/471/1125 346/472/1126 328/473/1127 327/474/1128
f 327/474/1129 328/473/1130 339/475/1131 340/476/1132
f 347/477/1133 348/478/1134 329/479/1135 330/480/1136
f 330/480/1137 329/479/1138 337/481/1139 338/482/1140
f 349/483/1141 350/484/1142 332/485/1143 331/486/1144
f 331/486/1145 332/485/1146 335/487/1147 336/488/1148
f 351/489/1149 352/490/1150 340/476/1151 339/475/1152
f 353/491/1153 354/492/1154 334/470/1155 333/469/1156
f 355/493/1157 356/494/1158 336/488/1159 335/487/1160
f 338/482/1161 337/481/1162 357/495/1163 358/496/1164
f 356/494/1165 353/491/1166 333/469/1167 336/488/1168
f 329/479/1169 348/478/1170 355/493/1171 335/487/1172
f 351/489/1173 339/475/1174 342/497/1175 359/498/1176
f 347/477/1177 330/480/1178 340/476/1179 352/490/1180
f 336/488/1181 333/469/1182 325/467/1183 331/486/1184
f 329/479/1185 335/487/1186 332/485/1187 337/481/1188
f 340/476/1189 330/480/1190 338/482/1191 327/474/1192
f 341/499/1193 342/497/1194 339/475/1195 328/473/1196
f 331/486/1197 325/467/1198 344/466/1199 349/483/1200
f 337/481/1201 332/485/1202 350/484/1203 357/495/1204
f 327/474/1205 338/482/1206 358/496/1207 345/471/1208
f 360/500/1209 341/499/1210 328/473/1211 346/472/1212
f 326/468/1213 341/501/1214 360/502/1215 343/465/1216
f 334/470/1217 342/503/1218 341/501/1219 326/468/1220
f 359/504/1221 342/503/1222 334/470/1223 354/492/1224
f 362/505/1225 361/506/1226 20/23/1227 52/22/1228
f 363/507/1229 362/505/1230 52/22/1231 49/19/1232
f 364/508/1233 363/507/1234 49/19/1235 41/18/1236
f 365/509/1237 364/508/1238 41/18/1239 40/62/1240
f 366/70/1241 365/69/1242 40/510/1243 39/511/1244
f 38/73/1245 367/51/1246 366/50/1247 39/61/1248
f 17/25/1249 368/71/1250 367/51/1251 38/73/1252
f 43/28/1253 369/76/1254 368/71/1255 17/25/1256
f 43/28/1257 29/72/1258 370/44/1259 369/76/1260
f 371/45/1261 370/44/1262 29/72/1263 28/30/1264
f 372/66/1265 371/65/1266 28/512/1267 21/513/1268
f 361/506/1269 372/514/1270 21/29/1271 20/23/1272
f 374/141/1273 373/140/1274 93/515/1275 94/516/1276
f 375/517/1277 374/518/1278 94/133/1279 96/83/1280
f 376/519/1281 375/517/1282 96/83/1283 57/82/1284
f 377/520/1285 376/519/1286 57/82/1287 108/77/1288
f 378/521/1289 377/520/1290 108/77/1291 59/80/1292
f 379/522/1293 378/521/1294 59/80/1295 102/85/1296
f 380/523/1297 379/522/1298 102/85/1299 65/88/1300
f 67/97/1301 381/524/1302 380/523/1303 65/88/1304
f 382/137/1305 381/136/1306 67/525/1307 68/526/1308
f 70/92/1309 383/100/1310 382/99/1311 68/98/1312
f 111/91/1313 384/142/1314 383/100/1315 70/92/1316
f 61/153/1317 385/155/1318 384/142/1319 111/91/1320
f 63/147/1321 386/156/1322 385/155/1323 61/153/1324
f 112/148/1325 387/154/1326 386/156/1327 63/147/1328
f 388/126/1329 387/154/1330 112/148/1331 91/144/1332
f 373/127/1333 388/126/1334 91/144/1335 93/131/1336
