%YAML 1.1
%TAG !u! tag:unity3d.com,2011:
--- !u!114 &11400000
MonoBehaviour:
  m_ObjectHideFlags: 0
  m_CorrespondingSourceObject: {fileID: 0}
  m_PrefabInstance: {fileID: 0}
  m_PrefabAsset: {fileID: 0}
  m_GameObject: {fileID: 0}
  m_Enabled: 1
  m_EditorHideFlags: 0
  m_Script: {fileID: 11500000, guid: 8763df918af4e3533a38ff7f8a9223cd, type: 3}
  m_Name: AlcoholPool
  m_EditorClassIdentifier: 
  elements:
  - {fileID: 11400000, guid: e47fb2d04224a8139b1b1e57f4003a75, type: 2}
  - {fileID: 11400000, guid: 71f5a3d9be0faf6f0ad4190ef9cd7406, type: 2}
  - {fileID: 11400000, guid: 8d19e452baaeb3848bcfa34fb939abd4, type: 2}
  - {fileID: 11400000, guid: aedaa1ac3b8968730a2f4ee5e522654a, type: 2}
  - {fileID: 11400000, guid: ff359d0cb9e568e428f2d86cf524cd60, type: 2}
  - {fileID: 11400000, guid: 11e8f0e5b29c48f4ab0710d6dd5b4323, type: 2}
