%YAML 1.1
%TAG !u! tag:unity3d.com,2011:
--- !u!114 &11400000
MonoBehaviour:
  m_ObjectHideFlags: 0
  m_CorrespondingSourceObject: {fileID: 0}
  m_PrefabInstance: {fileID: 0}
  m_PrefabAsset: {fileID: 0}
  m_GameObject: {fileID: 0}
  m_Enabled: 1
  m_EditorHideFlags: 0
  m_Script: {fileID: 11500000, guid: 69a3e31cb493ec67c990c6f4afb65af6, type: 3}
  m_Name: WineDrinkGlass
  m_EditorClassIdentifier: 
  modelPrefab: {fileID: 925359805727390950, guid: 595e9f4bc1c0e8244827fa980e2e5601,
    type: 3}
