%YAML 1.1
%TAG !u! tag:unity3d.com,2011:
--- !u!114 &11400000
MonoBehaviour:
  m_ObjectHideFlags: 0
  m_CorrespondingSourceObject: {fileID: 0}
  m_PrefabInstance: {fileID: 0}
  m_PrefabAsset: {fileID: 0}
  m_GameObject: {fileID: 0}
  m_Enabled: 1
  m_EditorHideFlags: 0
  m_Script: {fileID: 11500000, guid: eb1f280b35dab1451bd65e814f042c5d, type: 3}
  m_Name: BottleDropSoundPool
  m_EditorClassIdentifier: 
  elements:
  - {fileID: 8300000, guid: 383449099e14e384885fb149827d635b, type: 3}
