%YAML 1.1
%TAG !u! tag:unity3d.com,2011:
--- !u!114 &11400000
MonoBehaviour:
  m_ObjectHideFlags: 0
  m_CorrespondingSourceObject: {fileID: 0}
  m_PrefabInstance: {fileID: 0}
  m_PrefabAsset: {fileID: 0}
  m_GameObject: {fileID: 0}
  m_Enabled: 1
  m_EditorHideFlags: 0
  m_Script: {fileID: 11500000, guid: 57d5e5b4a7544ce05a1ea0596e261f0a, type: 3}
  m_Name: BeerDrinkRecipe
  m_EditorClassIdentifier: 
  drinkName: Beer
  iconSprite: {fileID: 21300000, guid: c45b972e344e37c4ead2098e327dfc1c, type: 3}
  drinkGlass: {fileID: 11400000, guid: 143fb20629da9f8f5a2635717589c47e, type: 2}
  drinkModifierFlags: 0
  drinkTypes:
  - {fileID: 11400000, guid: f653c2edc135f064a984136603ad0a97, type: 2}
