%YAML 1.1
%TAG !u! tag:unity3d.com,2011:
--- !u!114 &11400000
MonoBehaviour:
  m_ObjectHideFlags: 0
  m_CorrespondingSourceObject: {fileID: 0}
  m_PrefabInstance: {fileID: 0}
  m_PrefabAsset: {fileID: 0}
  m_GameObject: {fileID: 0}
  m_Enabled: 1
  m_EditorHideFlags: 0
  m_Script: {fileID: 11500000, guid: 57d5e5b4a7544ce05a1ea0596e261f0a, type: 3}
  m_Name: TequilaDrinkRecipe
  m_EditorClassIdentifier: 
  drinkName: Tequila
  iconSprite: {fileID: 21300000, guid: a7382cffc5dad74468bc1761d5bfa0a1, type: 3}
  drinkGlass: {fileID: 11400000, guid: 9a62daec9ae4f5272920f9521980142d, type: 2}
  drinkModifierFlags: 0
  drinkTypes:
  - {fileID: 11400000, guid: 71e77d742c882ab45ab7600c996dbe81, type: 2}
