%YAML 1.1
%TAG !u! tag:unity3d.com,2011:
--- !u!114 &11400000
MonoBehaviour:
  m_ObjectHideFlags: 0
  m_CorrespondingSourceObject: {fileID: 0}
  m_PrefabInstance: {fileID: 0}
  m_PrefabAsset: {fileID: 0}
  m_GameObject: {fileID: 0}
  m_Enabled: 1
  m_EditorHideFlags: 0
  m_Script: {fileID: 11500000, guid: ba20a2556b1702648a4bdd53f51e2d11, type: 3}
  m_Name: PatronPool
  m_EditorClassIdentifier: 
  elements:
  - {fileID: 11400000, guid: 40d3d93f259fafea7b4e3bc00d99f905, type: 2}
  - {fileID: 11400000, guid: 497d22593dbe0204ea99bfcaefaf735a, type: 2}
  - {fileID: 11400000, guid: cbffbcd622017caadb7cf02db7279a95, type: 2}
  - {fileID: 11400000, guid: 2c76a4f542e15995a804301330cbcb17, type: 2}
  - {fileID: 11400000, guid: 80ffdc79cb5937c389f52e9ea020b499, type: 2}
  - {fileID: 11400000, guid: 2418e6bc26445eac1bc7cbe14904335a, type: 2}
  - {fileID: 11400000, guid: dc64111b66820538fb28551621c8b111, type: 2}
