%YAML 1.1
%TAG !u! tag:unity3d.com,2011:
--- !u!114 &11400000
MonoBehaviour:
  m_ObjectHideFlags: 0
  m_CorrespondingSourceObject: {fileID: 0}
  m_PrefabInstance: {fileID: 0}
  m_PrefabAsset: {fileID: 0}
  m_GameObject: {fileID: 0}
  m_Enabled: 1
  m_EditorHideFlags: 0
  m_Script: {fileID: 11500000, guid: 477ebd9cacfb70500a45386434685200, type: 3}
  m_Name: GirlAndBoy
  m_EditorClassIdentifier: 
  modelPrefab: {fileID: 8114870328253573569, guid: 625968f42066c0b4c8912d8324b2262e,
    type: 3}
  title: Girl and Boy
  maxHealth: 100
  modifierFlags: 1
  patience: 2
  preferredDrinkRecipes: {fileID: 11400000, guid: 8d0b6e6fab9e33077be88c1656677e5e,
    type: 2}
  dialogPanelYOffset: 2.2
  happySound: {fileID: 8300000, guid: 9582c40f1da75b64bb3cd08b3af4c590, type: 3}
  normalSound: {fileID: 0}
  angrySound: {fileID: 8300000, guid: fee08c5136193f679a6aaf92fc62daf8, type: 3}
