%YAML 1.1
%TAG !u! tag:unity3d.com,2011:
--- !u!114 &11400000
MonoBehaviour:
  m_ObjectHideFlags: 0
  m_CorrespondingSourceObject: {fileID: 0}
  m_PrefabInstance: {fileID: 0}
  m_PrefabAsset: {fileID: 0}
  m_GameObject: {fileID: 0}
  m_Enabled: 1
  m_EditorHideFlags: 0
  m_Script: {fileID: 11500000, guid: 477ebd9cacfb70500a45386434685200, type: 3}
  m_Name: PointyGuy
  m_EditorClassIdentifier: 
  modelPrefab: {fileID: 8114870328253573569, guid: e3ca3400c6d2a4971960c227b9be0794,
    type: 3}
  title: Pointy Guy
  maxHealth: 100
  patience: 2
  preferredDrinkRecipes: {fileID: 11400000, guid: 8d0b6e6fab9e33077be88c1656677e5e,
    type: 2}
  happySound: {fileID: 8300000, guid: 788bacfc368c7275e8b56aa9a68f2bf5, type: 3}
  normalSound: {fileID: 8300000, guid: b9d7625cc81db2caca79bf401be424cc, type: 3}
  angrySound: {fileID: 8300000, guid: 3aef74ad10415d03c9530ecc199ed9a2, type: 3}
