%YAML 1.1
%TAG !u! tag:unity3d.com,2011:
--- !u!114 &11400000
MonoBehaviour:
  m_ObjectHideFlags: 0
  m_CorrespondingSourceObject: {fileID: 0}
  m_PrefabInstance: {fileID: 0}
  m_PrefabAsset: {fileID: 0}
  m_GameObject: {fileID: 0}
  m_Enabled: 1
  m_EditorHideFlags: 0
  m_Script: {fileID: 11500000, guid: ca604e06d193c2e11898e937a5799524, type: 3}
  m_Name: TequilaBottleItem
  m_EditorClassIdentifier: 
  modelPrefab: {fileID: 682533717938439242, guid: 02583a3cce105974c9123ca9afbb2c32,
    type: 3}
  itemName: Tequila Bottle
  iconSprite: {fileID: 21300000, guid: a7382cffc5dad74468bc1761d5bfa0a1, type: 3}
  fallDamageDistance: 0.5
  interactSounds: {fileID: 11400000, guid: f7ace81ae19c803698a0e725df307dc2, type: 2}
  destroySounds: {fileID: 11400000, guid: 740ebff3a8e5fc2a1bbf4c25c12ba599, type: 2}
  dropSounds: {fileID: 11400000, guid: c1870193d698a30a9b4f797bc2606f01, type: 2}
  drinkType: {fileID: 11400000, guid: 71e77d742c882ab45ab7600c996dbe81, type: 2}
  pouringFillValue: 1
  pouringSound: {fileID: 8300000, guid: 4953e79ef6ce4804ba91418131f7f7d5, type: 3}
