# This file uses centimeters as units for non-parametric coordinates.

mtllib barwall.mtl
g default
v -0.707730 1.567306 0.000000
v 0.000000 1.567306 0.000000
v 0.000000 1.567306 6.716424
v 0.000000 2.053810 6.767558
v -0.707731 2.053810 6.767558
v -0.707730 1.567306 6.716424
v 0.000000 2.519053 6.918724
v -0.707730 2.519053 6.918724
v -0.707730 4.355652 0.000000
v 0.000000 4.355652 0.000000
v 0.000000 2.942699 7.163316
v -0.707731 2.942699 7.163316
v 0.000000 3.306234 7.490644
v -0.707730 3.306234 7.490644
v 0.000000 3.593771 7.886403
v -0.707730 3.593771 7.886403
v 0.000000 3.792740 8.333296
v -0.707731 3.792740 8.333296
v -0.707730 4.355652 9.056382
v 0.000000 4.355652 9.056382
v 0.000000 3.894446 8.811790
v -0.707730 3.894446 8.811790
v 0.000000 3.894446 9.056382
v -0.707730 3.894446 9.056382
v -0.707731 4.355652 8.811792
v 0.000000 4.355652 8.811790
v 0.000000 4.355652 8.333295
v -0.707731 4.355652 8.333296
v -0.707730 4.355652 7.886402
v 0.000000 4.355652 7.886402
v 0.000000 4.355652 7.490643
v -0.707730 4.355652 7.490644
v -0.707730 3.306235 0.000000
v 0.000000 3.306234 0.000000
v 0.000000 2.942700 0.000000
v -0.707730 2.942700 0.000000
v -0.707730 2.519052 0.000000
v 0.000000 2.519052 0.000000
v 0.000000 2.053810 0.000000
v -0.707730 2.053810 0.000000
v -0.707730 0.000000 6.716424
v -0.707730 0.000000 0.000000
v 0.000000 0.000000 0.000000
v 0.000000 0.000000 6.716424
v -0.707731 4.355652 10.840832
v 0.000000 4.355652 10.840832
v 0.000000 3.894446 10.840832
v -0.707731 3.894446 10.840832
vt 0.835178 0.750463
vt 0.835178 0.600723
vt 0.897328 0.600723
vt 0.897328 0.750463
vt 0.064656 0.733910
vt 0.064656 0.769898
vt 0.012302 0.769898
vt 0.012302 0.733910
vt 0.064656 0.804314
vt 0.012302 0.804314
vt 0.127325 0.717880
vt 0.077013 0.717880
vt 0.077013 0.692036
vt 0.127325 0.692037
vt 0.064656 0.835653
vt 0.012302 0.835653
vt 0.064656 0.859867
vt 0.012302 0.859867
vt 0.064656 0.889143
vt 0.012302 0.889143
vt 0.064656 0.922201
vt 0.012302 0.922201
vt 0.827734 0.217522
vt 0.765584 0.217522
vt 0.765584 0.175502
vt 0.827734 0.175502
vt 0.064656 0.957597
vt 0.012302 0.957597
vt 0.329969 0.746905
vt 0.378649 0.746905
vt 0.378649 0.789575
vt 0.338764 0.789575
vt 0.382817 0.746907
vt 0.431497 0.746907
vt 0.422701 0.789576
vt 0.382817 0.789576
vt 0.064656 0.975691
vt 0.012302 0.975691
vt 0.835178 0.595072
vt 0.835178 0.005261
vt 0.897328 0.005261
vt 0.897328 0.595072
vt 0.422701 0.811388
vt 0.382817 0.811388
vt 0.765584 0.154023
vt 0.827734 0.154023
vt 0.378649 0.811386
vt 0.338764 0.811386
vt 0.287897 0.671762
vt 0.378649 0.671762
vt 0.378649 0.707054
vt 0.312763 0.707054
vt 0.827734 0.291520
vt 0.765584 0.291520
vt 0.765584 0.256766
vt 0.827734 0.256766
vt 0.382817 0.671763
vt 0.473569 0.671763
vt 0.448703 0.707055
vt 0.382817 0.707055
vt 0.287897 0.003785
vt 0.256459 0.642572
vt 0.256459 0.003785
vt 0.765584 0.949320
vt 0.827734 0.949320
vt 0.505007 0.003787
vt 0.505007 0.642574
vt 0.473569 0.003786
vt 0.382817 0.003787
vt 0.077013 0.617434
vt 0.127325 0.617434
vt 0.378649 0.003785
vt 0.219823 0.003785
vt 0.219823 0.620761
vt 0.179590 0.607281
vt 0.179590 0.003785
vt 0.127325 0.781070
vt 0.077013 0.781070
vt 0.077013 0.747997
vt 0.127325 0.747997
vt 0.581876 0.003787
vt 0.581876 0.607282
vt 0.541643 0.620762
vt 0.541643 0.003786
vt 0.137517 0.602721
vt 0.137517 0.003785
vt 0.127325 0.815656
vt 0.077013 0.815656
vt 0.623948 0.003787
vt 0.623948 0.602722
vt 0.759486 0.003787
vt 0.759486 0.602722
vt 0.127325 0.927074
vt 0.077013 0.927074
vt 0.012302 0.617970
vt 0.064656 0.617970
vt 0.378649 0.963442
vt 0.338764 0.963442
vt 0.382817 0.963444
vt 0.422701 0.963444
vt 0.001980 0.602721
vt 0.001980 0.003785
vt 0.765584 0.004284
vt 0.827734 0.004284
vn 0.000000 -1.000000 0.000000
vn 0.000000 -1.000000 0.000000
vn 0.000000 -1.000000 0.000000
vn 0.000000 -1.000000 0.000000
vn 0.000000 -0.104530 0.994522
vn 0.000000 -0.207912 0.978148
vn 0.000000 -0.207912 0.978148
vn 0.000000 -0.104530 0.994522
vn 0.000000 -0.207912 0.978148
vn 0.000000 -0.406736 0.913546
vn 0.000000 -0.406736 0.913546
vn 0.000000 -0.207912 0.978148
vn 0.000000 0.000000 -1.000000
vn 0.000000 0.000000 -1.000000
vn 0.000000 0.000000 -1.000000
vn 0.000000 0.000000 -1.000000
vn 0.000000 -0.406736 0.913546
vn 0.000000 -0.587785 0.809017
vn 0.000000 -0.587785 0.809017
vn 0.000000 -0.406736 0.913546
vn 0.000000 -0.587785 0.809017
vn 0.000000 -0.743144 0.669131
vn 0.000000 -0.743144 0.669131
vn 0.000000 -0.587785 0.809017
vn 0.000000 -0.743144 0.669131
vn 0.000000 -0.866026 0.500000
vn 0.000000 -0.866026 0.500000
vn 0.000000 -0.743144 0.669131
vn 0.000000 -0.866026 0.500000
vn 0.000000 -0.951057 0.309016
vn 0.000000 -0.951057 0.309016
vn 0.000000 -0.866026 0.500000
vn 0.000000 1.000000 0.000000
vn 0.000000 1.000000 0.000000
vn 0.000000 1.000000 0.000000
vn 0.000000 1.000000 0.000000
vn 0.000000 -0.951057 0.309016
vn 0.000000 -0.978148 0.207912
vn 0.000000 -0.978148 0.207912
vn 0.000000 -0.951057 0.309016
vn 1.000000 0.000000 0.000000
vn 1.000000 0.000000 0.000000
vn 1.000000 0.000001 0.000000
vn 1.000000 0.000001 0.000000
vn -1.000000 0.000000 0.000000
vn -1.000000 0.000000 0.000000
vn -1.000000 0.000000 0.000000
vn -1.000000 0.000000 0.000000
vn 0.000000 -1.000000 0.000000
vn 0.000000 -1.000000 0.000000
vn 0.000000 -1.000000 0.000000
vn 0.000000 -1.000000 0.000000
vn 0.000000 -1.000000 0.000000
vn 0.000000 -1.000000 0.000000
vn 0.000000 -1.000000 0.000000
vn 0.000000 -1.000000 0.000000
vn -1.000000 0.000000 0.000000
vn -1.000000 0.000000 0.000000
vn -1.000000 0.000000 0.000000
vn -1.000000 0.000000 0.000000
vn 0.000000 1.000000 0.000000
vn 0.000000 1.000000 0.000000
vn 0.000000 1.000000 0.000000
vn 0.000000 1.000000 0.000000
vn 1.000000 0.000001 0.000000
vn 1.000000 0.000001 0.000000
vn 1.000000 0.000001 -0.000001
vn 1.000000 0.000001 -0.000001
vn 1.000000 0.000000 0.000000
vn 1.000000 0.000000 0.000000
vn 1.000000 0.000000 0.000000
vn 1.000000 0.000000 0.000000
vn 0.000000 1.000000 0.000000
vn 0.000000 1.000000 0.000000
vn 0.000000 1.000000 0.000000
vn 0.000000 1.000000 0.000000
vn -1.000000 0.000000 0.000000
vn -1.000000 0.000000 0.000000
vn -1.000000 0.000000 0.000000
vn -1.000000 0.000000 0.000000
vn -1.000000 0.000000 0.000000
vn -1.000000 0.000000 0.000000
vn -1.000000 0.000000 0.000000
vn -1.000000 0.000000 0.000000
vn 0.000000 1.000000 0.000000
vn 0.000000 1.000000 0.000000
vn 0.000000 1.000000 0.000000
vn 0.000000 1.000000 0.000000
vn 1.000000 0.000000 0.000000
vn 1.000000 0.000000 0.000000
vn 1.000000 0.000000 0.000000
vn 1.000000 0.000000 0.000000
vn 1.000000 0.000000 0.000000
vn 1.000000 0.000000 0.000000
vn 1.000000 0.000000 0.000000
vn 1.000000 0.000000 0.000000
vn 0.000000 1.000000 0.000000
vn 0.000000 1.000000 0.000000
vn 0.000000 1.000000 0.000000
vn 0.000000 1.000000 0.000000
vn -1.000000 0.000000 0.000000
vn -1.000000 0.000000 0.000000
vn -1.000000 0.000000 0.000000
vn -1.000000 0.000000 0.000000
vn -1.000000 0.000000 0.000000
vn -1.000000 0.000000 0.000000
vn -1.000000 0.000000 0.000000
vn -1.000000 0.000000 0.000000
vn 0.000000 0.000000 -1.000000
vn 0.000000 0.000000 -1.000000
vn 0.000000 0.000000 -1.000000
vn 0.000000 0.000000 -1.000000
vn 1.000000 0.000000 0.000000
vn 1.000000 0.000000 0.000000
vn 1.000000 0.000000 0.000000
vn 1.000000 0.000000 0.000000
vn 1.000000 0.000000 0.000000
vn 1.000000 0.000000 0.000000
vn 1.000000 0.000000 0.000000
vn 1.000000 0.000000 0.000000
vn 0.000000 0.000000 -1.000000
vn 0.000000 0.000000 -1.000000
vn 0.000000 0.000000 -1.000000
vn 0.000000 0.000000 -1.000000
vn -1.000000 0.000000 0.000000
vn -1.000000 0.000000 0.000000
vn -1.000000 0.000000 0.000000
vn -1.000000 0.000000 0.000000
vn -1.000000 0.000000 0.000000
vn -1.000000 0.000000 0.000000
vn -1.000000 0.000000 0.000000
vn -1.000000 0.000000 0.000000
vn 0.000000 0.000000 -1.000000
vn 0.000000 0.000000 -1.000000
vn 0.000000 0.000000 -1.000000
vn 0.000000 0.000000 -1.000000
vn 1.000000 0.000000 0.000000
vn 1.000000 0.000000 0.000000
vn 1.000000 0.000000 0.000000
vn 1.000000 0.000000 0.000000
vn 1.000000 0.000000 0.000000
vn 1.000000 0.000000 0.000000
vn 1.000000 0.000000 0.000000
vn 1.000000 0.000000 0.000000
vn 0.000000 0.000000 -1.000000
vn 0.000000 0.000000 -1.000000
vn 0.000000 0.000000 -1.000000
vn 0.000000 0.000000 -1.000000
vn -1.000000 0.000000 0.000000
vn -1.000000 0.000000 0.000000
vn -1.000000 0.000000 0.000000
vn -1.000000 0.000000 0.000000
vn -1.000000 0.000000 0.000000
vn -1.000000 0.000000 0.000000
vn -1.000000 0.000000 0.000000
vn -1.000000 0.000000 0.000000
vn 0.000000 0.000000 -1.000000
vn 0.000000 0.000000 -1.000000
vn 0.000000 0.000000 -1.000000
vn 0.000000 0.000000 -1.000000
vn 0.000000 0.000000 1.000000
vn 0.000000 0.000000 1.000000
vn 0.000000 0.000000 1.000000
vn 0.000000 0.000000 1.000000
vn 1.000000 0.000000 0.000000
vn 1.000000 0.000000 0.000000
vn 1.000000 0.000000 0.000000
vn 1.000000 0.000000 0.000000
vn -1.000000 0.000000 -0.000000
vn -1.000000 0.000000 -0.000000
vn -1.000000 0.000000 -0.000000
vn -1.000000 0.000000 -0.000000
vn 1.000000 0.000000 0.000000
vn 1.000000 0.000000 0.000000
vn 1.000000 0.000000 0.000000
vn 1.000000 0.000000 0.000000
vn 0.000000 1.000000 0.000000
vn 0.000000 1.000000 0.000000
vn 0.000000 1.000000 0.000000
vn 0.000000 1.000000 0.000000
s off
g barwall:pCube9Bar_low
usemtl barwall:initialShadingGroup
f 48/1/1 24/2/2 23/3/3 47/4/4
f 3/5/5 4/6/6 5/7/7 6/8/8
f 4/6/9 7/9/10 8/10/11 5/7/12
f 35/11/13 36/12/14 33/13/15 34/14/16
f 7/9/17 11/15/18 12/16/19 8/10/20
f 11/15/21 13/17/22 14/18/23 12/16/24
f 13/17/25 15/19/26 16/20/27 14/18/28
f 15/19/29 17/21/30 18/22/31 16/20/32
f 27/23/33 28/24/34 25/25/35 26/26/36
f 17/21/37 21/27/38 22/28/39 18/22/40
f 17/29/41 27/30/42 26/31/43 21/32/44
f 28/33/45 18/34/46 22/35/47 25/36/48
f 22/28/49 21/27/50 23/37/51 24/38/52
f 41/39/53 42/40/54 43/41/55 44/42/56
f 25/36/57 22/35/58 24/43/59 19/44/60
f 26/26/61 25/25/62 19/45/63 20/46/64
f 21/32/65 26/31/66 20/47/67 23/48/68
f 13/49/69 31/50/70 30/51/71 15/52/72
f 31/53/73 32/54/74 29/55/75 30/56/76
f 32/57/77 14/58/78 16/59/79 29/60/80
f 29/60/81 16/59/82 18/34/83 28/33/84
f 30/56/85 29/55/86 28/24/87 27/23/88
f 15/52/89 30/51/90 27/30/91 17/29/92
f 34/61/93 13/49/94 11/62/95 35/63/96
f 9/64/97 32/54/98 31/53/99 10/65/100
f 36/66/101 12/67/102 14/58/103 33/68/104
f 33/68/105 14/58/106 32/57/107 9/69/108
f 34/14/109 33/13/110 9/70/111 10/71/112
f 10/72/113 31/50/114 13/49/115 34/61/116
f 38/73/117 7/74/118 4/75/119 39/76/120
f 39/77/121 40/78/122 37/79/123 38/80/124
f 40/81/125 5/82/126 8/83/127 37/84/128
f 37/84/129 8/83/130 12/67/131 36/66/132
f 38/80/133 37/79/134 36/12/135 35/11/136
f 35/63/137 11/62/138 7/74/139 38/73/140
f 39/76/141 4/75/142 3/85/143 2/86/144
f 2/87/145 1/88/146 40/78/147 39/77/148
f 1/89/149 6/90/150 5/82/151 40/81/152
f 6/90/153 1/89/154 42/91/155 41/92/156
f 1/88/157 2/87/158 43/93/159 42/94/160
f 3/5/161 6/8/162 41/95/163 44/96/164
f 20/47/165 46/97/166 47/98/167 23/48/168
f 45/99/169 19/44/170 24/43/171 48/100/172
f 2/86/173 3/85/174 44/101/175 43/102/176
f 20/46/177 19/45/178 45/103/179 46/104/180
g default
v 0.000000 0.000000 6.716424
v 0.130475 0.000000 6.716424
v 0.000000 0.308530 6.716424
v 0.130475 0.308530 6.716424
v 0.000000 0.308530 0.000000
v 0.130475 0.308530 0.000000
v 0.000000 0.000000 0.000000
v 0.130475 0.000000 0.000000
vt 0.857881 0.780347
vt 0.877230 0.780347
vt 0.877230 0.826100
vt 0.857881 0.826100
vt 0.918006 0.001992
vt 0.937355 0.001992
vt 0.937355 0.998008
vt 0.918006 0.998008
vt 0.882980 0.780347
vt 0.902329 0.780347
vt 0.902329 0.826100
vt 0.882980 0.826100
vt 0.943284 0.998008
vt 0.943284 0.001992
vt 0.989038 0.001992
vt 0.989038 0.998008
vn 0.000000 0.000000 1.000000
vn 0.000000 0.000000 1.000000
vn 0.000000 0.000000 1.000000
vn 0.000000 0.000000 1.000000
vn 0.000000 1.000000 0.000000
vn 0.000000 1.000000 0.000000
vn 0.000000 1.000000 0.000000
vn 0.000000 1.000000 0.000000
vn 0.000000 0.000000 -1.000000
vn 0.000000 0.000000 -1.000000
vn 0.000000 0.000000 -1.000000
vn 0.000000 0.000000 -1.000000
vn 1.000000 0.000000 0.000000
vn 1.000000 0.000000 0.000000
vn 1.000000 0.000000 0.000000
vn 1.000000 0.000000 0.000000
s off
g barwall:Bar_lowpCube1
usemtl barwall:initialShadingGroup
f 49/105/181 50/106/182 52/107/183 51/108/184
f 51/109/185 52/110/186 54/111/187 53/112/188
f 53/113/189 54/114/190 56/115/191 55/116/192
f 50/117/193 56/118/194 54/119/195 52/120/196
